Precision,Recall,F-measure
0.11458333333333333,0.11458333333333333,0.11458333333333333
0.23958333333333334,0.23958333333333334,0.23958333333333334
0.15625,0.15625,0.15625
0.3125,0.3125,0.3125
0.1875,0.1875,0.1875
0.21875,0.21875,0.21875
0.16666666666666666,0.16666666666666666,0.16666666666666666
0.23958333333333334,0.23958333333333334,0.23958333333333334
