Precision,Recall,F-measure
0.30303030303030304,0.30303030303030304,0.30303030303030304
0.12121212121212122,0.12121212121212122,0.12121212121212122
0.30303030303030304,0.30303030303030304,0.30303030303030304
0.8484848484848485,0.8484848484848485,0.8484848484848486
0.8181818181818182,0.8181818181818182,0.8181818181818182
0.696969696969697,0.696969696969697,0.696969696969697
0.8484848484848485,0.8484848484848485,0.8484848484848486
