Precision,Recall,F-measure
0.48484848484848486,0.48484848484848486,0.48484848484848486
0.6666666666666666,0.6666666666666666,0.6666666666666666
0.8484848484848485,0.8484848484848485,0.8484848484848486
0.696969696969697,0.696969696969697,0.696969696969697
0.6666666666666666,0.6666666666666666,0.6666666666666666
0.5151515151515151,0.5151515151515151,0.5151515151515151
