Precision,Recall,F-measure
0.2727272727272727,0.2727272727272727,0.2727272727272727
0.2727272727272727,0.2727272727272727,0.2727272727272727
0.6060606060606061,0.6060606060606061,0.6060606060606061
0.5454545454545454,0.5454545454545454,0.5454545454545454
0.2727272727272727,0.2727272727272727,0.2727272727272727
0.2727272727272727,0.2727272727272727,0.2727272727272727
0.5757575757575758,0.5757575757575758,0.5757575757575758
