Precision,Recall,F-measure
0.4948453608247423,0.4948453608247423,0.4948453608247423
0.3711340206185567,0.3711340206185567,0.3711340206185567
0.5154639175257731,0.5154639175257731,0.5154639175257731
0.3711340206185567,0.3711340206185567,0.3711340206185567
0.4329896907216495,0.4329896907216495,0.43298969072164945
0.3711340206185567,0.3711340206185567,0.3711340206185567
0.422680412371134,0.422680412371134,0.422680412371134
0.3711340206185567,0.3711340206185567,0.3711340206185567
0.4948453608247423,0.4948453608247423,0.4948453608247423
0.5051546391752577,0.5051546391752577,0.5051546391752577
0.422680412371134,0.422680412371134,0.422680412371134
0.41237113402061853,0.41237113402061853,0.41237113402061853
0.3711340206185567,0.3711340206185567,0.3711340206185567
0.3711340206185567,0.3711340206185567,0.3711340206185567
0.5154639175257731,0.5154639175257731,0.5154639175257731
0.3711340206185567,0.3711340206185567,0.3711340206185567
0.3711340206185567,0.3711340206185567,0.3711340206185567
0.4845360824742268,0.4845360824742268,0.4845360824742268
