Precision,Recall,F-measure
0.09375,0.09375,0.09375
0.0625,0.0625,0.0625
0.0625,0.0625,0.0625
0.0625,0.0625,0.0625
0.0625,0.0625,0.0625
0.125,0.125,0.125
0.0625,0.0625,0.0625
0.09375,0.09375,0.09375
0.0625,0.0625,0.0625
0.09375,0.09375,0.09375
0.0625,0.0625,0.0625
0.09375,0.09375,0.09375
0.0625,0.0625,0.0625
0.09375,0.09375,0.09375
