Precision,Recall,F-measure
1.0,1.0,1.0
0.979381443298969,0.979381443298969,0.979381443298969
0.38144329896907214,0.38144329896907214,0.38144329896907214
1.0,1.0,1.0
0.979381443298969,0.979381443298969,0.979381443298969
1.0,1.0,1.0
1.0,1.0,1.0
1.0,1.0,1.0
1.0,1.0,1.0
1.0,1.0,1.0
1.0,1.0,1.0
0.38144329896907214,0.38144329896907214,0.38144329896907214
0.8969072164948454,0.8969072164948454,0.8969072164948453
1.0,1.0,1.0
1.0,1.0,1.0
1.0,1.0,1.0
0.979381443298969,0.979381443298969,0.979381443298969
1.0,1.0,1.0
