Precision,Recall,F-measure
1.0,1.0,1.0
1.0,1.0,1.0
1.0,1.0,1.0
0.44329896907216493,0.44329896907216493,0.44329896907216493
1.0,1.0,1.0
1.0,1.0,1.0
0.8969072164948454,0.8969072164948454,0.8969072164948453
0.979381443298969,0.979381443298969,0.979381443298969
1.0,1.0,1.0
1.0,1.0,1.0
1.0,1.0,1.0
1.0,1.0,1.0
1.0,1.0,1.0
1.0,1.0,1.0
1.0,1.0,1.0
0.979381443298969,0.979381443298969,0.979381443298969
1.0,1.0,1.0
1.0,1.0,1.0
1.0,1.0,1.0
1.0,1.0,1.0
