Precision,Recall,F-measure,Time,similarity.structure.ConceptNameSimilarity@2d798f00,similarity.structure.DirectIndividualSimilarity@588a6346,similarity.structure.CommentTokenSimilarity@10ed7197,class similarity.FunctionContainer@FuncoesHierarquia,similarity.structure.DirectSuperClassSimilarity@31c56856,similarity.structure.DirectSubClassSimilarity@50a5f0e1,class similarity.FunctionContainer@FuncoesPropriedades,similarity.structure.DirectPropertybyRangeDomainSimilarity@5b3e29e0,similarity.structure.DirectPropertybyNameSimilarity@20a49ad9
1.0,1.0,1.0,19.177s,0.0,0.105,0.895,0.0,0.69,0.21,0.0,0.135,0.695
1.0,1.0,1.0,17.863s,0.0,0.3,0.7,0.0,0.75,0.115,0.0,0.01,0.09
1.0,1.0,1.0,4.09s,0.0,0.09,0.91,0.0,0.94,0.005,0.0,0.295,0.35
1.0,1.0,1.0,4.378s,0.0,0.01,0.99,0.0,0.465,0.495,0.0,0.16,0.695
1.0,1.0,1.0,6.816s,0.0,0.945,0.055,0.0,0.01,0.64,0.0,0.295,0.115
0.36082474226804123,0.36082474226804123,0.3608247422680413,6.716s,0.0,1.0,0.0,0.0,0.31,0.2,0.0,0.46,0.525
0.5979381443298969,0.5979381443298969,0.5979381443298969,7.85s,0.005,0.845,0.0,0.16,0.06,0.765,0.03,0.99,0.005
0.36082474226804123,0.36082474226804123,0.3608247422680413,4.294s,0.0,1.0,0.0,0.0,0.585,0.215,0.0,0.69,0.075
1.0,1.0,1.0,7.003s,0.0,0.005,0.995,0.0,0.885,0.1,0.0,0.06,0.87
1.0,1.0,1.0,5.315s,0.0,0.005,0.995,0.0,0.08,0.56,0.0,0.15,0.115
1.0,1.0,1.0,7.911s,0.005,0.105,0.89,0.005,0.97,0.0,0.005,0.2,0.51
0.9587628865979382,0.9587628865979382,0.9587628865979382,7.414s,0.0,0.995,0.005,0.0,0.19,0.33,0.0,0.025,0.135
1.0,1.0,1.0,7.46s,0.005,0.045,0.905,0.005,0.215,0.39,0.06,0.825,0.155
0.979381443298969,0.979381443298969,0.979381443298969,8.09s,0.015,0.965,0.03,0.015,0.06,0.11,0.005,0.28,0.255
1.0,1.0,1.0,8.163s,0.005,0.655,0.205,0.25,0.52,0.235,0.005,0.61,0.155
0.8969072164948454,0.8969072164948454,0.8969072164948453,4.223s,0.0,0.0,1.0,0.0,0.74,0.055,0.0,0.65,0.125
0.979381443298969,0.979381443298969,0.979381443298969,8.971s,0.03,0.445,0.03,0.57,0.1,0.85,0.01,0.365,0.245
0.36082474226804123,0.36082474226804123,0.3608247422680413,4.216s,0.0,1.0,0.0,0.0,0.97,0.005,0.0,0.735,0.065
0.9587628865979382,0.9587628865979382,0.9587628865979382,4.239s,0.0,0.995,0.005,0.0,0.87,0.12,0.0,0.63,0.155
1.0,1.0,1.0,2.601s,0.0,0.02,0.98,0.0,0.43,0.14,0.0,0.4,0.365
0.9587628865979382,0.9587628865979382,0.9587628865979382,3.745s,0.0,0.995,0.005,0.0,0.355,0.03,0.0,0.035,0.35
