Precision,Recall,F-measure
0.6804123711340206,0.6804123711340206,0.6804123711340206
0.7216494845360825,0.7216494845360825,0.7216494845360826
0.6391752577319587,0.6391752577319587,0.6391752577319587
0.6804123711340206,0.6804123711340206,0.6804123711340206
0.6494845360824743,0.6494845360824743,0.6494845360824743
0.5979381443298969,0.5979381443298969,0.5979381443298969
0.7010309278350515,0.7010309278350515,0.7010309278350515
