Precision,Recall,F-measure
0.6907216494845361,0.6907216494845361,0.6907216494845361
0.6804123711340206,0.6804123711340206,0.6804123711340206
0.6288659793814433,0.6288659793814433,0.6288659793814433
0.6804123711340206,0.6804123711340206,0.6804123711340206
0.6391752577319587,0.6391752577319587,0.6391752577319587
0.6804123711340206,0.6804123711340206,0.6804123711340206
0.6804123711340206,0.6804123711340206,0.6804123711340206
0.6391752577319587,0.6391752577319587,0.6391752577319587
0.6701030927835051,0.6701030927835051,0.6701030927835051
0.6494845360824743,0.6494845360824743,0.6494845360824743
