Precision,Recall,F-measure,Time,similarity.structure.ConceptNameSimilarity@1ffd63ee,similarity.structure.DirectIndividualSimilarity@5f293540,similarity.structure.CommentTokenSimilarity@3b510ef3,class similarity.FunctionContainer@FuncoesHierarquia,similarity.structure.DirectSuperClassSimilarity@682106cc,similarity.structure.DirectSubClassSimilarity@1cb7ea35,class similarity.FunctionContainer@FuncoesPropriedades,similarity.structure.DirectPropertybyRangeDomainSimilarity@a224fd6,similarity.structure.DirectPropertybyNameSimilarity@39b7eef7
0.6363636363636364,0.5737704918032787,0.6034482758620691,7.857s,0.165,0.785,0.05,0.0,0.015,0.035,0.0,0.55,0.35
0.6,0.5409836065573771,0.5689655172413793,7.869s,0.0,0.985,0.015,0.0,0.995,0.01,0.0,1.0,0.015
0.6,0.5409836065573771,0.5689655172413793,7.753s,0.0,0.975,0.025,0.0,0.635,0.035,0.0,0.055,0.29
