Precision,Recall,F-measure
0.48484848484848486,0.48484848484848486,0.48484848484848486
0.6363636363636364,0.6363636363636364,0.6363636363636364
0.6363636363636364,0.6363636363636364,0.6363636363636364
0.5151515151515151,0.5151515151515151,0.5151515151515151
0.6060606060606061,0.6060606060606061,0.6060606060606061
0.48484848484848486,0.48484848484848486,0.48484848484848486
0.5454545454545454,0.5454545454545454,0.5454545454545454
0.5151515151515151,0.5151515151515151,0.5151515151515151
0.48484848484848486,0.48484848484848486,0.48484848484848486
0.48484848484848486,0.48484848484848486,0.48484848484848486
