Precision,Recall,F-measure
0.875,0.875,0.875
0.625,0.625,0.625
0.875,0.875,0.875
0.90625,0.90625,0.90625
0.3125,0.3125,0.3125
0.8125,0.8125,0.8125
0.8125,0.8125,0.8125
1.0,1.0,1.0
1.0,1.0,1.0
0.9375,0.9375,0.9375
0.90625,0.90625,0.90625
1.0,1.0,1.0
0.90625,0.90625,0.90625
1.0,1.0,1.0
0.9375,0.9375,0.9375
0.3125,0.3125,0.3125
0.3125,0.3125,0.3125
1.0,1.0,1.0
0.8125,0.8125,0.8125
0.875,0.875,0.875
