Precision,Recall,F-measure
0.030927835051546393,0.030927835051546393,0.030927835051546393
0.4020618556701031,0.4020618556701031,0.4020618556701031
0.422680412371134,0.422680412371134,0.422680412371134
0.4742268041237113,0.4742268041237113,0.4742268041237113
0.5257731958762887,0.5257731958762887,0.5257731958762887
0.5257731958762887,0.5257731958762887,0.5257731958762887
0.3711340206185567,0.3711340206185567,0.3711340206185567
0.31958762886597936,0.31958762886597936,0.31958762886597936
0.4329896907216495,0.4329896907216495,0.43298969072164945
