Precision,Recall,F-measure
0.4742268041237113,0.4742268041237113,0.4742268041237113
0.5670103092783505,0.5670103092783505,0.5670103092783505
0.6082474226804123,0.6082474226804123,0.6082474226804123
0.5670103092783505,0.5670103092783505,0.5670103092783505
0.4948453608247423,0.4948453608247423,0.4948453608247423
0.5051546391752577,0.5051546391752577,0.5051546391752577
0.4845360824742268,0.4845360824742268,0.4845360824742268
