Precision,Recall,F-measure
0.2727272727272727,0.2727272727272727,0.2727272727272727
0.36363636363636365,0.36363636363636365,0.36363636363636365
0.2727272727272727,0.2727272727272727,0.2727272727272727
0.36363636363636365,0.36363636363636365,0.36363636363636365
0.36363636363636365,0.36363636363636365,0.36363636363636365
0.36363636363636365,0.36363636363636365,0.36363636363636365
0.2727272727272727,0.2727272727272727,0.2727272727272727
0.2727272727272727,0.2727272727272727,0.2727272727272727
0.36363636363636365,0.36363636363636365,0.36363636363636365
0.36363636363636365,0.36363636363636365,0.36363636363636365
0.2727272727272727,0.2727272727272727,0.2727272727272727
0.36363636363636365,0.36363636363636365,0.36363636363636365
0.36363636363636365,0.36363636363636365,0.36363636363636365
0.36363636363636365,0.36363636363636365,0.36363636363636365
0.2727272727272727,0.2727272727272727,0.2727272727272727
0.30303030303030304,0.30303030303030304,0.30303030303030304
0.3333333333333333,0.3333333333333333,0.3333333333333333
0.2727272727272727,0.2727272727272727,0.2727272727272727
0.36363636363636365,0.36363636363636365,0.36363636363636365
0.3939393939393939,0.3939393939393939,0.3939393939393939
0.36363636363636365,0.36363636363636365,0.36363636363636365
0.2727272727272727,0.2727272727272727,0.2727272727272727
0.36363636363636365,0.36363636363636365,0.36363636363636365
