Precision,Recall,F-measure
0.6907216494845361,0.6907216494845361,0.6907216494845361
0.5979381443298969,0.5979381443298969,0.5979381443298969
0.7216494845360825,0.7216494845360825,0.7216494845360826
0.38144329896907214,0.38144329896907214,0.38144329896907214
0.6288659793814433,0.6288659793814433,0.6288659793814433
0.6082474226804123,0.6082474226804123,0.6082474226804123
0.6701030927835051,0.6701030927835051,0.6701030927835051
0.711340206185567,0.711340206185567,0.711340206185567
0.6185567010309279,0.6185567010309279,0.6185567010309279
