Precision,Recall,F-measure
0.5876288659793815,0.5876288659793815,0.5876288659793815
0.5463917525773195,0.5463917525773195,0.5463917525773195
0.5463917525773195,0.5463917525773195,0.5463917525773195
0.6082474226804123,0.6082474226804123,0.6082474226804123
0.5463917525773195,0.5463917525773195,0.5463917525773195
0.5463917525773195,0.5463917525773195,0.5463917525773195
0.5463917525773195,0.5463917525773195,0.5463917525773195
0.6185567010309279,0.6185567010309279,0.6185567010309279
0.6288659793814433,0.6288659793814433,0.6288659793814433
0.5670103092783505,0.5670103092783505,0.5670103092783505
0.6288659793814433,0.6288659793814433,0.6288659793814433
0.5463917525773195,0.5463917525773195,0.5463917525773195
