Precision,Recall,F-measure
0.5979381443298969,0.5979381443298969,0.5979381443298969
0.5773195876288659,0.5773195876288659,0.5773195876288659
0.6597938144329897,0.6597938144329897,0.6597938144329897
0.6082474226804123,0.6082474226804123,0.6082474226804123
0.5876288659793815,0.5876288659793815,0.5876288659793815
0.6185567010309279,0.6185567010309279,0.6185567010309279
0.6185567010309279,0.6185567010309279,0.6185567010309279
0.6185567010309279,0.6185567010309279,0.6185567010309279
0.5670103092783505,0.5670103092783505,0.5670103092783505
0.6082474226804123,0.6082474226804123,0.6082474226804123
