Precision,Recall,F-measure
0.38144329896907214,0.38144329896907214,0.38144329896907214
0.38144329896907214,0.38144329896907214,0.38144329896907214
0.3711340206185567,0.3711340206185567,0.3711340206185567
0.3917525773195876,0.3917525773195876,0.3917525773195876
0.38144329896907214,0.38144329896907214,0.38144329896907214
0.422680412371134,0.422680412371134,0.422680412371134
0.4639175257731959,0.4639175257731959,0.4639175257731959
