Precision,Recall,F-measure
0.4948453608247423,0.4948453608247423,0.4948453608247423
0.38144329896907214,0.38144329896907214,0.38144329896907214
0.4329896907216495,0.4329896907216495,0.43298969072164945
0.38144329896907214,0.38144329896907214,0.38144329896907214
0.4845360824742268,0.4845360824742268,0.4845360824742268
0.5051546391752577,0.5051546391752577,0.5051546391752577
0.4845360824742268,0.4845360824742268,0.4845360824742268
0.4639175257731959,0.4639175257731959,0.4639175257731959
