Precision,Recall,F-measure
0.65625,0.65625,0.65625
0.6979166666666666,0.6979166666666666,0.6979166666666666
0.7291666666666666,0.7291666666666666,0.7291666666666665
0.75,0.75,0.75
0.7291666666666666,0.7291666666666666,0.7291666666666665
0.71875,0.71875,0.71875
0.71875,0.71875,0.71875
0.75,0.75,0.75
0.7291666666666666,0.7291666666666666,0.7291666666666665
0.7083333333333334,0.7083333333333334,0.7083333333333334
0.59375,0.59375,0.59375
