Precision,Recall,F-measure
0.6666666666666666,0.6666666666666666,0.6666666666666666
0.7083333333333334,0.7083333333333334,0.7083333333333334
0.6458333333333334,0.6458333333333334,0.6458333333333334
0.6354166666666666,0.6354166666666666,0.6354166666666666
0.75,0.75,0.75
0.6875,0.6875,0.6875
0.59375,0.59375,0.59375
0.6666666666666666,0.6666666666666666,0.6666666666666666
0.6770833333333334,0.6770833333333334,0.6770833333333334
0.7291666666666666,0.7291666666666666,0.7291666666666665
