Precision,Recall,F-measure,Time,similarity.structure.ConceptNameSimilarity@78fc5e1f,similarity.structure.DirectIndividualSimilarity@5d7bd70e,similarity.structure.CommentTokenSimilarity@60199374,class similarity.FunctionContainer@FuncoesHierarquia,similarity.structure.DirectSuperClassSimilarity@391fbf79,similarity.structure.DirectSubClassSimilarity@238912e3,class similarity.FunctionContainer@FuncoesPropriedades,similarity.structure.DirectPropertybyRangeDomainSimilarity@2049623b,similarity.structure.DirectPropertybyNameSimilarity@ce7c775
1.0,1.0,1.0,0.801s,0.105,0.885,0.01,0.0,0.13,0.32,0.0,0.645,0.03
1.0,1.0,1.0,3.482s,0.0,0.06,0.94,0.0,0.455,0.26,0.0,0.07,0.35
1.0,1.0,1.0,1.603s,0.01,0.11,0.88,0.0,0.405,0.335,0.0,0.355,0.315
1.0,1.0,1.0,0.818s,0.99,0.0,0.01,0.0,0.525,0.18,0.0,0.43,0.275
1.0,1.0,1.0,4.211s,0.07,0.88,0.045,0.0,0.095,0.775,0.02,0.645,0.105
1.0,1.0,1.0,0.778s,0.035,0.96,0.005,0.0,0.46,0.25,0.0,0.375,0.1
1.0,1.0,1.0,1.533s,0.105,0.0,0.895,0.0,0.0,0.99,0.0,0.275,0.36
1.0,1.0,1.0,0.392s,0.03,0.97,0.0,0.0,0.075,0.6,0.0,0.975,0.025
1.0,1.0,1.0,0.901s,0.06,0.9,0.015,0.0,0.02,0.96,0.075,0.735,0.265
1.0,1.0,1.0,2.291s,0.005,0.365,0.63,0.0,0.01,0.57,0.0,0.015,0.91
1.0,1.0,1.0,0.37s,0.435,0.375,0.19,0.0,0.215,0.4,0.0,0.285,0.665
1.0,1.0,1.0,2.271s,0.02,0.91,0.07,0.0,0.93,0.05,0.0,0.25,0.665
1.0,1.0,1.0,1.981s,0.005,0.99,0.005,0.0,0.99,0.005,0.0,0.07,0.085
1.0,1.0,1.0,1.452s,0.005,0.16,0.835,0.0,0.005,0.235,0.0,0.29,0.045
1.0,1.0,1.0,0.772s,0.16,0.005,0.835,0.0,0.135,0.775,0.0,0.59,0.32
1.0,1.0,1.0,1.3s,0.145,0.71,0.145,0.0,0.075,0.62,0.0,0.06,0.75
1.0,1.0,1.0,1.259s,0.0,0.0,1.0,0.0,0.215,0.19,0.0,0.36,0.525
1.0,1.0,1.0,2.288s,0.005,0.005,0.99,0.0,0.925,0.01,0.0,0.655,0.155
1.0,1.0,1.0,6.172s,0.12,0.15,0.685,0.03,0.0,0.785,0.065,0.385,0.605
1.0,1.0,1.0,0.741s,0.06,0.0,0.94,0.0,0.535,0.085,0.0,0.44,0.125
