Precision,Recall,F-measure
0.865979381443299,0.865979381443299,0.8659793814432989
0.8350515463917526,0.8350515463917526,0.8350515463917526
0.9381443298969072,0.9381443298969072,0.9381443298969072
0.9175257731958762,0.9175257731958762,0.9175257731958762
0.9175257731958762,0.9175257731958762,0.9175257731958762
0.9072164948453608,0.9072164948453608,0.9072164948453608
0.9072164948453608,0.9072164948453608,0.9072164948453608
0.9175257731958762,0.9175257731958762,0.9175257731958762
0.8350515463917526,0.8350515463917526,0.8350515463917526
0.9278350515463918,0.9278350515463918,0.9278350515463918
0.9072164948453608,0.9072164948453608,0.9072164948453608
0.865979381443299,0.865979381443299,0.8659793814432989
0.9072164948453608,0.9072164948453608,0.9072164948453608
0.8556701030927835,0.8556701030927835,0.8556701030927835
