Precision,Recall,F-measure
0.8969072164948454,0.8969072164948454,0.8969072164948453
0.8865979381443299,0.8865979381443299,0.8865979381443299
1.0,1.0,1.0
1.0,1.0,1.0
1.0,1.0,1.0
1.0,1.0,1.0
1.0,1.0,1.0
1.0,1.0,1.0
1.0,1.0,1.0
1.0,1.0,1.0
1.0,1.0,1.0
1.0,1.0,1.0
1.0,1.0,1.0
1.0,1.0,1.0
1.0,1.0,1.0
0.8969072164948454,0.8969072164948454,0.8969072164948453
1.0,1.0,1.0
1.0,1.0,1.0
1.0,1.0,1.0
