Precision,Recall,F-measure
0.0,0.0,NaN
0.2727272727272727,0.2727272727272727,0.2727272727272727
0.2727272727272727,0.2727272727272727,0.2727272727272727
0.30303030303030304,0.30303030303030304,0.30303030303030304
0.30303030303030304,0.30303030303030304,0.30303030303030304
0.42424242424242425,0.42424242424242425,0.4242424242424243
0.2727272727272727,0.2727272727272727,0.2727272727272727
0.09090909090909091,0.09090909090909091,0.09090909090909091
0.36363636363636365,0.36363636363636365,0.36363636363636365
0.2727272727272727,0.2727272727272727,0.2727272727272727
0.2727272727272727,0.2727272727272727,0.2727272727272727
0.0,0.0,NaN
0.3333333333333333,0.3333333333333333,0.3333333333333333
0.0,0.0,NaN
0.36363636363636365,0.36363636363636365,0.36363636363636365
