Precision,Recall,F-measure
0.9072164948453608,0.9072164948453608,0.9072164948453608
0.8247422680412371,0.8247422680412371,0.8247422680412371
0.9587628865979382,0.9587628865979382,0.9587628865979382
0.9278350515463918,0.9278350515463918,0.9278350515463918
0.8762886597938144,0.8762886597938144,0.8762886597938144
0.8350515463917526,0.8350515463917526,0.8350515463917526
0.9484536082474226,0.9484536082474226,0.9484536082474226
0.9587628865979382,0.9587628865979382,0.9587628865979382
0.8969072164948454,0.8969072164948454,0.8969072164948453
0.36082474226804123,0.36082474226804123,0.3608247422680413
0.8350515463917526,0.8350515463917526,0.8350515463917526
