Precision,Recall,F-measure
0.8333333333333334,0.8333333333333334,0.8333333333333334
0.8229166666666666,0.8229166666666666,0.8229166666666666
0.8125,0.8125,0.8125
0.875,0.875,0.875
0.875,0.875,0.875
0.9166666666666666,0.9166666666666666,0.9166666666666666
0.875,0.875,0.875
0.8229166666666666,0.8229166666666666,0.8229166666666666
0.8333333333333334,0.8333333333333334,0.8333333333333334
0.8333333333333334,0.8333333333333334,0.8333333333333334
0.8541666666666666,0.8541666666666666,0.8541666666666666
0.8020833333333334,0.8020833333333334,0.8020833333333334
0.9166666666666666,0.9166666666666666,0.9166666666666666
0.8125,0.8125,0.8125
