############################################
Teste=2578
Precisao=0.42424242424242425
Recall=0.42424242424242425
Encontrados=33
Esperados=33
############################################
Alinhamentos esperados:
http://oaei.ontologymatching.org/2016benchmarks/biblio/1//101/onto.rdf#Journal
=
http://oaei.ontologymatching.org/2016benchmarks/biblio/1//257-8/onto.rdf#hbyoksazqmsbhbqqkfwoqqqtdo

http://oaei.ontologymatching.org/2016benchmarks/biblio/1//101/onto.rdf#Book
=
http://oaei.ontologymatching.org/2016benchmarks/biblio/1//257-8/onto.rdf#fjcuwifrpbnvqcmzkewydyznug

http://oaei.ontologymatching.org/2016benchmarks/biblio/1//101/onto.rdf#Proceedings
=
http://oaei.ontologymatching.org/2016benchmarks/biblio/1//257-8/onto.rdf#dyrmixxqvfwkhwcfkhooaoohom

http://oaei.ontologymatching.org/2016benchmarks/biblio/1//101/onto.rdf#Chapter
=
http://oaei.ontologymatching.org/2016benchmarks/biblio/1//257-8/onto.rdf#jfoscknbeewugcfklimndmghlo

http://oaei.ontologymatching.org/2016benchmarks/biblio/1//101/onto.rdf#School
=
http://oaei.ontologymatching.org/2016benchmarks/biblio/1//257-8/onto.rdf#wdwuraulkushlqlkhcqubqaqjf

http://oaei.ontologymatching.org/2016benchmarks/biblio/1//101/onto.rdf#Date
=
http://oaei.ontologymatching.org/2016benchmarks/biblio/1//257-8/onto.rdf#lhfcypxzujiqbndciotcrdmvvd

http://oaei.ontologymatching.org/2016benchmarks/biblio/1//101/onto.rdf#Collection
=
http://oaei.ontologymatching.org/2016benchmarks/biblio/1//257-8/onto.rdf#bybnsfrkyofxbddeioysrjdusy

http://oaei.ontologymatching.org/2016benchmarks/biblio/1//101/onto.rdf#Conference
=
http://oaei.ontologymatching.org/2016benchmarks/biblio/1//257-8/onto.rdf#xhvzufvmkloxuusmkhdyxrryci

http://oaei.ontologymatching.org/2016benchmarks/biblio/1//101/onto.rdf#Part
=
http://oaei.ontologymatching.org/2016benchmarks/biblio/1//257-8/onto.rdf#arciyehqhefqphhneqjthlvwek

http://oaei.ontologymatching.org/2016benchmarks/biblio/1//101/onto.rdf#Misc
=
http://oaei.ontologymatching.org/2016benchmarks/biblio/1//257-8/onto.rdf#xoojtiywxmhhaagzkzzsidqmmg

http://oaei.ontologymatching.org/2016benchmarks/biblio/1//101/onto.rdf#MotionPicture
=
http://oaei.ontologymatching.org/2016benchmarks/biblio/1//257-8/onto.rdf#cmcbeitzvwdffhiovgzcvuzrqz

http://oaei.ontologymatching.org/2016benchmarks/biblio/1//101/onto.rdf#TechReport
=
http://oaei.ontologymatching.org/2016benchmarks/biblio/1//257-8/onto.rdf#ffgvufmsmhjnupmadypbxhrntp

http://oaei.ontologymatching.org/2016benchmarks/biblio/1//101/onto.rdf#InProceedings
=
http://oaei.ontologymatching.org/2016benchmarks/biblio/1//257-8/onto.rdf#srnbbgkrxjkdjwtizgleefnuhi

http://oaei.ontologymatching.org/2016benchmarks/biblio/1//101/onto.rdf#Deliverable
=
http://oaei.ontologymatching.org/2016benchmarks/biblio/1//257-8/onto.rdf#fhzgkpvggrdleixhouqvrmuyec

http://oaei.ontologymatching.org/2016benchmarks/biblio/1//101/onto.rdf#InCollection
=
http://oaei.ontologymatching.org/2016benchmarks/biblio/1//257-8/onto.rdf#rnzmetlyqnmbxfxpytfhfuxwje

http://oaei.ontologymatching.org/2016benchmarks/biblio/1//101/onto.rdf#Publisher
=
http://oaei.ontologymatching.org/2016benchmarks/biblio/1//257-8/onto.rdf#coysouihwkynfjiwmugjihsopd

http://oaei.ontologymatching.org/2016benchmarks/biblio/1//101/onto.rdf#Report
=
http://oaei.ontologymatching.org/2016benchmarks/biblio/1//257-8/onto.rdf#vfuxotmckqvasmredjxefzvqzw

http://oaei.ontologymatching.org/2016benchmarks/biblio/1//101/onto.rdf#Article
=
http://oaei.ontologymatching.org/2016benchmarks/biblio/1//257-8/onto.rdf#Article

http://oaei.ontologymatching.org/2016benchmarks/biblio/1//101/onto.rdf#InBook
=
http://oaei.ontologymatching.org/2016benchmarks/biblio/1//257-8/onto.rdf#lftrehjozbgnjlxwumwzfbkzcw



Funcao1=similarity.structure.ConceptNameSimilarity@2b01a4b0
Peso1=0.37967843

Funcao2=similarity.structure.DirectIndividualSimilarity@20795029
Peso2=0.23191224

Funcao3=similarity.structure.CommentTokenSimilarity@19b832ff
Peso3=0.59789526

Funcao4=class similarity.FunctionContainer@FuncoesHierarquia
Peso4=0.9516914

Funcao5=similarity.structure.DirectSuperClassSimilarity@4d38c30
Peso5=0.9391727

Funcao6=similarity.structure.DirectSubClassSimilarity@22d18c3e
Peso6=0.18711439

Funcao5=class similarity.FunctionContainer@FuncoesPropriedades
Peso5=0.13020858

Funcao6=similarity.structure.DirectPropertybyRangeDomainSimilarity@48436855
Peso6=0.46998206

Funcao7=similarity.structure.DirectPropertybyNameSimilarity@10b48468
Peso7=1.1253905

############################
#Similaridade dos recursos

(Academic            ,Academic            ,0.6633897)
(Academic            ,mcuvuqkoisqgxzn.    ,0.41613072)
(Academic            ,lhfcypxzujiqbnd.    ,0.41613072)
(Academic            ,PageRange           ,0.4145081)
(Academic            ,hbyoksazqmsbhbq.    ,0.40152764)
(Academic            ,xhvzufvmkloxuus.    ,0.40152764)
(Academic            ,fxaksksvvusfblc.    ,0.3971772)
(Academic            ,nffddxhfommazfx.    ,0.39620063)
(Academic            ,Article             ,0.3710307)
(Academic            ,jfoscknbeewugcf.    ,0.36737996)
(Academic            ,lftrehjozbgnjlx.    ,0.36737996)
(Academic            ,Unpublished         ,0.36618942)
(Academic            ,fhzgkpvggrdleix.    ,0.36114842)
(Academic            ,cmcbeitzvwdffhi.    ,0.36114842)
(Academic            ,zxsuaicwzyzplgo.    ,0.36087924)
(Academic            ,ffxnlkbymbmhxfq.    ,0.36087924)
(Academic            ,srnbbgkrxjkdjwt.    ,0.3527769)
(Academic            ,rnzmetlyqnmbxfx.    ,0.3527769)
(Academic            ,xoojtiywxmhhaag.    ,0.3465454)
(Academic            ,lkyjfnnnrqxpwrm.    ,0.34627625)
(Academic            ,gajpkmwildizvln.    ,0.34538794)
(Academic            ,dyrmixxqvfwkhwc.    ,0.34235963)
(Academic            ,bybnsfrkyofxbdd.    ,0.34235963)
(Academic            ,vfuxotmckqvasmr.    ,0.33869874)
(Academic            ,arciyehqhefqphh.    ,0.33779386)
(Academic            ,Informal            ,0.33459553)
(Academic            ,ffgvufmsmhjnupm.    ,0.33194238)
(Academic            ,nhurniotlornvxw.    ,0.33078486)
(Academic            ,fjcuwifrpbnvqcm.    ,0.3231908)
(Academic            ,Monograph           ,0.31315362)
(Academic            ,Institution         ,0.30954635)
(Academic            ,wdwuraulkushlql.    ,0.30069053)
(Academic            ,coysouihwkynfji.    ,0.30069053)
(Address             ,PageRange           ,1.1882678)
(Address             ,mcuvuqkoisqgxzn.    ,1.1331009)
(Address             ,hbyoksazqmsbhbq.    ,1.1331009)
(Address             ,xhvzufvmkloxuus.    ,1.1331009)
(Address             ,lhfcypxzujiqbnd.    ,1.1331009)
(Address             ,nffddxhfommazfx.    ,1.018477)
(Address             ,fxaksksvvusfblc.    ,0.6336454)
(Address             ,wdwuraulkushlql.    ,0.5698747)
(Address             ,bybnsfrkyofxbdd.    ,0.54206455)
(Address             ,coysouihwkynfji.    ,0.54066867)
(Address             ,Monograph           ,0.525839)
(Address             ,Article             ,0.5133372)
(Address             ,dyrmixxqvfwkhwc.    ,0.4982555)
(Address             ,xoojtiywxmhhaag.    ,0.48830345)
(Address             ,srnbbgkrxjkdjwt.    ,0.48830345)
(Address             ,lftrehjozbgnjlx.    ,0.48830345)
(Address             ,ffgvufmsmhjnupm.    ,0.47835147)
(Address             ,cmcbeitzvwdffhi.    ,0.47370046)
(Address             ,rnzmetlyqnmbxfx.    ,0.47370046)
(Address             ,jfoscknbeewugcf.    ,0.47370046)
(Address             ,fhzgkpvggrdleix.    ,0.46374846)
(Address             ,zxsuaicwzyzplgo.    ,0.45379645)
(Address             ,Unpublished         ,0.4445036)
(Address             ,gajpkmwildizvln.    ,0.43919343)
(Address             ,nhurniotlornvxw.    ,0.43919343)
(Address             ,ffxnlkbymbmhxfq.    ,0.4245904)
(Address             ,lkyjfnnnrqxpwrm.    ,0.4245904)
(Address             ,Academic            ,0.40333804)
(Address             ,Informal            ,0.36085936)
(Address             ,fjcuwifrpbnvqcm.    ,0.34980053)
(Address             ,vfuxotmckqvasmr.    ,0.3453785)
(Address             ,arciyehqhefqphh.    ,0.33762446)
(Address             ,Institution         ,0.31251094)
(Article             ,Article             ,0.58146185)
(Article             ,fxaksksvvusfblc.    ,0.35676867)
(Article             ,PageRange           ,0.32815993)
(Article             ,mcuvuqkoisqgxzn.    ,0.287596)
(Article             ,Unpublished         ,0.28563356)
(Article             ,srnbbgkrxjkdjwt.    ,0.2747985)
(Article             ,lhfcypxzujiqbnd.    ,0.27299297)
(Article             ,gajpkmwildizvln.    ,0.2604102)
(Article             ,zxsuaicwzyzplgo.    ,0.2604102)
(Article             ,nhurniotlornvxw.    ,0.2604102)
(Article             ,hbyoksazqmsbhbq.    ,0.25838998)
(Article             ,xhvzufvmkloxuus.    ,0.25838998)
(Article             ,fhzgkpvggrdleix.    ,0.24559249)
(Article             ,wdwuraulkushlql.    ,0.23530008)
(Article             ,dyrmixxqvfwkhwc.    ,0.23373836)
(Article             ,cmcbeitzvwdffhi.    ,0.23373836)
(Article             ,ffxnlkbymbmhxfq.    ,0.23120415)
(Article             ,lkyjfnnnrqxpwrm.    ,0.23120415)
(Article             ,rnzmetlyqnmbxfx.    ,0.23098947)
(Article             ,jfoscknbeewugcf.    ,0.23098947)
(Article             ,lftrehjozbgnjlx.    ,0.23098947)
(Article             ,coysouihwkynfji.    ,0.22069708)
(Article             ,xoojtiywxmhhaag.    ,0.21913534)
(Article             ,bybnsfrkyofxbdd.    ,0.21913534)
(Article             ,ffgvufmsmhjnupm.    ,0.21638647)
(Article             ,Monograph           ,0.1899293)
(Article             ,Institution         ,0.14779659)
(Article             ,nffddxhfommazfx.    ,0.12916306)
(Article             ,arciyehqhefqphh.    ,0.112265415)
(Article             ,fjcuwifrpbnvqcm.    ,0.09523547)
(Article             ,Academic            ,0.08671013)
(Article             ,vfuxotmckqvasmr.    ,0.07621035)
(Article             ,Informal            ,0.044231456)
(Book                ,hbyoksazqmsbhbq.    ,0.43845612)
(Book                ,mcuvuqkoisqgxzn.    ,0.42385304)
(Book                ,xhvzufvmkloxuus.    ,0.42385304)
(Book                ,lhfcypxzujiqbnd.    ,0.42385304)
(Book                ,Monograph           ,0.4162983)
(Book                ,PageRange           ,0.39464706)
(Book                ,fxaksksvvusfblc.    ,0.38840204)
(Book                ,Unpublished         ,0.38211197)
(Book                ,nffddxhfommazfx.    ,0.38097298)
(Book                ,bybnsfrkyofxbdd.    ,0.3757344)
(Book                ,srnbbgkrxjkdjwt.    ,0.36994597)
(Book                ,jfoscknbeewugcf.    ,0.36994597)
(Book                ,lftrehjozbgnjlx.    ,0.36994597)
(Book                ,xoojtiywxmhhaag.    ,0.3669198)
(Book                ,fjcuwifrpbnvqcm.    ,0.36290163)
(Book                ,zxsuaicwzyzplgo.    ,0.3621988)
(Book                ,ffxnlkbymbmhxfq.    ,0.3621988)
(Book                ,lkyjfnnnrqxpwrm.    ,0.3621988)
(Book                ,dyrmixxqvfwkhwc.    ,0.36113134)
(Book                ,rnzmetlyqnmbxfx.    ,0.35534298)
(Book                ,cmcbeitzvwdffhi.    ,0.35231674)
(Book                ,nhurniotlornvxw.    ,0.3513373)
(Book                ,Article             ,0.34073997)
(Book                ,coysouihwkynfji.    ,0.34047592)
(Book                ,fhzgkpvggrdleix.    ,0.33771375)
(Book                ,ffgvufmsmhjnupm.    ,0.33771375)
(Book                ,gajpkmwildizvln.    ,0.33673435)
(Book                ,Informal            ,0.32408002)
(Book                ,vfuxotmckqvasmr.    ,0.3149583)
(Book                ,wdwuraulkushlql.    ,0.31126988)
(Book                ,Institution         ,0.30949843)
(Book                ,arciyehqhefqphh.    ,0.30492136)
(Book                ,Academic            ,0.28917682)
(Booklet             ,Unpublished         ,1.2238553)
(Booklet             ,zxsuaicwzyzplgo.    ,1.1840289)
(Booklet             ,ffxnlkbymbmhxfq.    ,1.1694258)
(Booklet             ,lkyjfnnnrqxpwrm.    ,1.1694258)
(Booklet             ,xoojtiywxmhhaag.    ,0.59703404)
(Booklet             ,coysouihwkynfji.    ,0.5892211)
(Booklet             ,cmcbeitzvwdffhi.    ,0.58243096)
(Booklet             ,Monograph           ,0.58030295)
(Booklet             ,wdwuraulkushlql.    ,0.5746181)
(Booklet             ,srnbbgkrxjkdjwt.    ,0.55434203)
(Booklet             ,hbyoksazqmsbhbq.    ,0.55350846)
(Booklet             ,Article             ,0.5501697)
(Booklet             ,gajpkmwildizvln.    ,0.54690087)
(Booklet             ,fhzgkpvggrdleix.    ,0.539739)
(Booklet             ,bybnsfrkyofxbdd.    ,0.539739)
(Booklet             ,jfoscknbeewugcf.    ,0.539739)
(Booklet             ,nhurniotlornvxw.    ,0.53229785)
(Booklet             ,fxaksksvvusfblc.    ,0.5288755)
(Booklet             ,dyrmixxqvfwkhwc.    ,0.525136)
(Booklet             ,rnzmetlyqnmbxfx.    ,0.525136)
(Booklet             ,lftrehjozbgnjlx.    ,0.525136)
(Booklet             ,mcuvuqkoisqgxzn.    ,0.5243024)
(Booklet             ,xhvzufvmkloxuus.    ,0.5243024)
(Booklet             ,lhfcypxzujiqbnd.    ,0.5243024)
(Booklet             ,ffgvufmsmhjnupm.    ,0.510533)
(Booklet             ,PageRange           ,0.4950964)
(Booklet             ,Informal            ,0.45498693)
(Booklet             ,fjcuwifrpbnvqcm.    ,0.44392812)
(Booklet             ,vfuxotmckqvasmr.    ,0.43950605)
(Booklet             ,arciyehqhefqphh.    ,0.43175203)
(Booklet             ,Academic            ,0.402546)
(Booklet             ,nffddxhfommazfx.    ,0.39507553)
(Booklet             ,Institution         ,0.3558942)
(Chapter             ,fxaksksvvusfblc.    ,0.70147043)
(Chapter             ,lhfcypxzujiqbnd.    ,0.5406258)
(Chapter             ,zxsuaicwzyzplgo.    ,0.5336003)
(Chapter             ,nhurniotlornvxw.    ,0.5336003)
(Chapter             ,ffxnlkbymbmhxfq.    ,0.5336003)
(Chapter             ,PageRange           ,0.52440023)
(Chapter             ,Unpublished         ,0.52430737)
(Chapter             ,gajpkmwildizvln.    ,0.5189972)
(Chapter             ,lkyjfnnnrqxpwrm.    ,0.5189972)
(Chapter             ,fhzgkpvggrdleix.    ,0.51750946)
(Chapter             ,ffgvufmsmhjnupm.    ,0.51750946)
(Chapter             ,mcuvuqkoisqgxzn.    ,0.5114198)
(Chapter             ,hbyoksazqmsbhbq.    ,0.5114198)
(Chapter             ,xhvzufvmkloxuus.    ,0.5114198)
(Chapter             ,coysouihwkynfji.    ,0.49723253)
(Chapter             ,srnbbgkrxjkdjwt.    ,0.48830345)
(Chapter             ,rnzmetlyqnmbxfx.    ,0.48830345)
(Chapter             ,jfoscknbeewugcf.    ,0.48830345)
(Chapter             ,wdwuraulkushlql.    ,0.48262954)
(Chapter             ,dyrmixxqvfwkhwc.    ,0.47835147)
(Chapter             ,cmcbeitzvwdffhi.    ,0.47835147)
(Chapter             ,lftrehjozbgnjlx.    ,0.47370046)
(Chapter             ,xoojtiywxmhhaag.    ,0.46374846)
(Chapter             ,bybnsfrkyofxbdd.    ,0.46374846)
(Chapter             ,Article             ,0.45909745)
(Chapter             ,Monograph           ,0.43454242)
(Chapter             ,Institution         ,0.4002297)
(Chapter             ,nffddxhfommazfx.    ,0.38219288)
(Chapter             ,arciyehqhefqphh.    ,0.35687852)
(Chapter             ,fjcuwifrpbnvqcm.    ,0.3398486)
(Chapter             ,Academic            ,0.33132324)
(Chapter             ,vfuxotmckqvasmr.    ,0.3208235)
(Chapter             ,Informal            ,0.2888446)
(Collection          ,zxsuaicwzyzplgo.    ,0.54690087)
(Collection          ,mcuvuqkoisqgxzn.    ,0.53976417)
(Collection          ,coysouihwkynfji.    ,0.5361117)
(Collection          ,lhfcypxzujiqbnd.    ,0.52516115)
(Collection          ,wdwuraulkushlql.    ,0.52150875)
(Collection          ,PageRange           ,0.51931995)
(Collection          ,ffxnlkbymbmhxfq.    ,0.51769483)
(Collection          ,lkyjfnnnrqxpwrm.    ,0.51769483)
(Collection          ,fxaksksvvusfblc.    ,0.51346886)
(Collection          ,cmcbeitzvwdffhi.    ,0.51164997)
(Collection          ,jfoscknbeewugcf.    ,0.51164997)
(Collection          ,fhzgkpvggrdleix.    ,0.5110915)
(Collection          ,bybnsfrkyofxbdd.    ,0.5110915)
(Collection          ,hbyoksazqmsbhbq.    ,0.5105581)
(Collection          ,Monograph           ,0.5052503)
(Collection          ,Unpublished         ,0.5030918)
(Collection          ,dyrmixxqvfwkhwc.    ,0.49648845)
(Collection          ,xhvzufvmkloxuus.    ,0.4959551)
(Collection          ,srnbbgkrxjkdjwt.    ,0.482444)
(Collection          ,ffgvufmsmhjnupm.    ,0.48188546)
(Collection          ,Article             ,0.47660276)
(Collection          ,xoojtiywxmhhaag.    ,0.46784094)
(Collection          ,rnzmetlyqnmbxfx.    ,0.46784094)
(Collection          ,lftrehjozbgnjlx.    ,0.46784094)
(Collection          ,Institution         ,0.4594429)
(Collection          ,gajpkmwildizvln.    ,0.45379645)
(Collection          ,nhurniotlornvxw.    ,0.45379645)
(Collection          ,nffddxhfommazfx.    ,0.3667282)
(Collection          ,Academic            ,0.36389163)
(Collection          ,fjcuwifrpbnvqcm.    ,0.3439411)
(Collection          ,arciyehqhefqphh.    ,0.33176503)
(Collection          ,vfuxotmckqvasmr.    ,0.31031293)
(Collection          ,Informal            ,0.29293707)
(Conference          ,PageRange           ,0.40302563)
(Conference          ,mcuvuqkoisqgxzn.    ,0.30956632)
(Conference          ,xhvzufvmkloxuus.    ,0.2949633)
(Conference          ,lhfcypxzujiqbnd.    ,0.2949633)
(Conference          ,Monograph           ,0.2919787)
(Conference          ,fxaksksvvusfblc.    ,0.28120095)
(Conference          ,hbyoksazqmsbhbq.    ,0.28036028)
(Conference          ,Article             ,0.25401083)
(Conference          ,bybnsfrkyofxbdd.    ,0.23648721)
(Conference          ,srnbbgkrxjkdjwt.    ,0.23648721)
(Conference          ,zxsuaicwzyzplgo.    ,0.23648721)
(Conference          ,jfoscknbeewugcf.    ,0.23648721)
(Conference          ,coysouihwkynfji.    ,0.23648721)
(Conference          ,fhzgkpvggrdleix.    ,0.2218842)
(Conference          ,cmcbeitzvwdffhi.    ,0.2218842)
(Conference          ,rnzmetlyqnmbxfx.    ,0.2218842)
(Conference          ,lkyjfnnnrqxpwrm.    ,0.2218842)
(Conference          ,lftrehjozbgnjlx.    ,0.2218842)
(Conference          ,Unpublished         ,0.21259136)
(Conference          ,gajpkmwildizvln.    ,0.20728119)
(Conference          ,dyrmixxqvfwkhwc.    ,0.20728119)
(Conference          ,ffgvufmsmhjnupm.    ,0.20728119)
(Conference          ,nhurniotlornvxw.    ,0.20728119)
(Conference          ,ffxnlkbymbmhxfq.    ,0.20728119)
(Conference          ,wdwuraulkushlql.    ,0.19267818)
(Conference          ,xoojtiywxmhhaag.    ,0.19267818)
(Conference          ,nffddxhfommazfx.    ,0.16573639)
(Conference          ,Informal            ,0.14628083)
(Conference          ,fjcuwifrpbnvqcm.    ,0.11258734)
(Conference          ,Academic            ,0.103331864)
(Conference          ,arciyehqhefqphh.    ,0.08580824)
(Conference          ,vfuxotmckqvasmr.    ,0.078959204)
(Conference          ,Institution         ,0.027396176)
(Date                ,PageRange           ,1.1861341)
(Date                ,hbyoksazqmsbhbq.    ,1.1309671)
(Date                ,lhfcypxzujiqbnd.    ,1.1309671)
(Date                ,mcuvuqkoisqgxzn.    ,1.1163641)
(Date                ,xhvzufvmkloxuus.    ,1.1163641)
(Date                ,nffddxhfommazfx.    ,1.0017403)
(Date                ,fxaksksvvusfblc.    ,0.574578)
(Date                ,Article             ,0.567577)
(Date                ,wdwuraulkushlql.    ,0.5552716)
(Date                ,coysouihwkynfji.    ,0.52606565)
(Date                ,Monograph           ,0.525839)
(Date                ,dyrmixxqvfwkhwc.    ,0.5128585)
(Date                ,srnbbgkrxjkdjwt.    ,0.5029065)
(Date                ,bybnsfrkyofxbdd.    ,0.4982555)
(Date                ,rnzmetlyqnmbxfx.    ,0.48830345)
(Date                ,lftrehjozbgnjlx.    ,0.48830345)
(Date                ,xoojtiywxmhhaag.    ,0.47370046)
(Date                ,cmcbeitzvwdffhi.    ,0.47370046)
(Date                ,jfoscknbeewugcf.    ,0.47370046)
(Date                ,fhzgkpvggrdleix.    ,0.46374846)
(Date                ,ffgvufmsmhjnupm.    ,0.46374846)
(Date                ,Unpublished         ,0.4445036)
(Date                ,gajpkmwildizvln.    ,0.43919343)
(Date                ,lkyjfnnnrqxpwrm.    ,0.43919343)
(Date                ,zxsuaicwzyzplgo.    ,0.4245904)
(Date                ,nhurniotlornvxw.    ,0.4245904)
(Date                ,ffxnlkbymbmhxfq.    ,0.4245904)
(Date                ,Academic            ,0.40333804)
(Date                ,Institution         ,0.34702712)
(Date                ,arciyehqhefqphh.    ,0.33762446)
(Date                ,fjcuwifrpbnvqcm.    ,0.33519757)
(Date                ,vfuxotmckqvasmr.    ,0.33077544)
(Date                ,Informal            ,0.31339958)
(Deliverable         ,fxaksksvvusfblc.    ,0.65619934)
(Deliverable         ,zxsuaicwzyzplgo.    ,0.64000535)
(Deliverable         ,ffxnlkbymbmhxfq.    ,0.64000535)
(Deliverable         ,PageRange           ,0.63012815)
(Deliverable         ,Article             ,0.62812614)
(Deliverable         ,lkyjfnnnrqxpwrm.    ,0.6254023)
(Deliverable         ,Unpublished         ,0.59619623)
(Deliverable         ,jfoscknbeewugcf.    ,0.5829895)
(Deliverable         ,srnbbgkrxjkdjwt.    ,0.56838655)
(Deliverable         ,rnzmetlyqnmbxfx.    ,0.56838655)
(Deliverable         ,lftrehjozbgnjlx.    ,0.56838655)
(Deliverable         ,Monograph           ,0.53631485)
(Deliverable         ,fhzgkpvggrdleix.    ,0.5256945)
(Deliverable         ,dyrmixxqvfwkhwc.    ,0.5256945)
(Deliverable         ,wdwuraulkushlql.    ,0.52150875)
(Deliverable         ,mcuvuqkoisqgxzn.    ,0.5212693)
(Deliverable         ,xhvzufvmkloxuus.    ,0.5212693)
(Deliverable         ,lhfcypxzujiqbnd.    ,0.5212693)
(Deliverable         ,bybnsfrkyofxbdd.    ,0.5110915)
(Deliverable         ,hbyoksazqmsbhbq.    ,0.5066663)
(Deliverable         ,ffgvufmsmhjnupm.    ,0.49648845)
(Deliverable         ,coysouihwkynfji.    ,0.49230272)
(Deliverable         ,cmcbeitzvwdffhi.    ,0.482444)
(Deliverable         ,gajpkmwildizvln.    ,0.46839947)
(Deliverable         ,xoojtiywxmhhaag.    ,0.46784094)
(Deliverable         ,nhurniotlornvxw.    ,0.45379645)
(Deliverable         ,nffddxhfommazfx.    ,0.40664542)
(Deliverable         ,Institution         ,0.38344765)
(Deliverable         ,Informal            ,0.36196953)
(Deliverable         ,arciyehqhefqphh.    ,0.346368)
(Deliverable         ,fjcuwifrpbnvqcm.    ,0.3439411)
(Deliverable         ,vfuxotmckqvasmr.    ,0.32491598)
(Deliverable         ,Academic            ,0.32247216)
(InBook              ,fxaksksvvusfblc.    ,0.37755507)
(InBook              ,Unpublished         ,0.30031013)
(InBook              ,mcuvuqkoisqgxzn.    ,0.28734413)
(InBook              ,lhfcypxzujiqbnd.    ,0.28734413)
(InBook              ,gajpkmwildizvln.    ,0.27508676)
(InBook              ,nhurniotlornvxw.    ,0.27508676)
(InBook              ,hbyoksazqmsbhbq.    ,0.2727411)
(InBook              ,xhvzufvmkloxuus.    ,0.2727411)
(InBook              ,coysouihwkynfji.    ,0.26057696)
(InBook              ,zxsuaicwzyzplgo.    ,0.2604837)
(InBook              ,ffxnlkbymbmhxfq.    ,0.2604837)
(InBook              ,lkyjfnnnrqxpwrm.    ,0.2604837)
(InBook              ,srnbbgkrxjkdjwt.    ,0.25462422)
(InBook              ,jfoscknbeewugcf.    ,0.25462422)
(InBook              ,PageRange           ,0.24353507)
(InBook              ,fhzgkpvggrdleix.    ,0.2400212)
(InBook              ,rnzmetlyqnmbxfx.    ,0.2400212)
(InBook              ,ffgvufmsmhjnupm.    ,0.2400212)
(InBook              ,lftrehjozbgnjlx.    ,0.2400212)
(InBook              ,dyrmixxqvfwkhwc.    ,0.23825423)
(InBook              ,bybnsfrkyofxbdd.    ,0.23825423)
(InBook              ,Monograph           ,0.23663166)
(InBook              ,wdwuraulkushlql.    ,0.23137093)
(InBook              ,xoojtiywxmhhaag.    ,0.22365122)
(InBook              ,cmcbeitzvwdffhi.    ,0.22365122)
(InBook              ,Article             ,0.21081516)
(InBook              ,Institution         ,0.20188156)
(InBook              ,Informal            ,0.19112673)
(InBook              ,nffddxhfommazfx.    ,0.12891118)
(InBook              ,fjcuwifrpbnvqcm.    ,0.09975134)
(InBook              ,arciyehqhefqphh.    ,0.08757526)
(InBook              ,vfuxotmckqvasmr.    ,0.066123195)
(InBook              ,Academic            ,0.0437662)
(InCollection        ,fxaksksvvusfblc.    ,0.62939054)
(InCollection        ,mcuvuqkoisqgxzn.    ,0.5405201)
(InCollection        ,lhfcypxzujiqbnd.    ,0.5405201)
(InCollection        ,Unpublished         ,0.5291298)
(InCollection        ,Institution         ,0.52363116)
(InCollection        ,jfoscknbeewugcf.    ,0.5173795)
(InCollection        ,PageRange           ,0.5137479)
(InCollection        ,hbyoksazqmsbhbq.    ,0.51131403)
(InCollection        ,gajpkmwildizvln.    ,0.5096591)
(InCollection        ,zxsuaicwzyzplgo.    ,0.5096591)
(InCollection        ,nhurniotlornvxw.    ,0.5096591)
(InCollection        ,coysouihwkynfji.    ,0.5090268)
(InCollection        ,Article             ,0.5076442)
(InCollection        ,srnbbgkrxjkdjwt.    ,0.5027765)
(InCollection        ,xhvzufvmkloxuus.    ,0.49671102)
(InCollection        ,lkyjfnnnrqxpwrm.    ,0.4950561)
(InCollection        ,wdwuraulkushlql.    ,0.49442384)
(InCollection        ,fhzgkpvggrdleix.    ,0.48817348)
(InCollection        ,rnzmetlyqnmbxfx.    ,0.48817348)
(InCollection        ,bybnsfrkyofxbdd.    ,0.48558795)
(InCollection        ,ffxnlkbymbmhxfq.    ,0.48045307)
(InCollection        ,ffgvufmsmhjnupm.    ,0.47357044)
(InCollection        ,lftrehjozbgnjlx.    ,0.47357044)
(InCollection        ,dyrmixxqvfwkhwc.    ,0.470985)
(InCollection        ,cmcbeitzvwdffhi.    ,0.470985)
(InCollection        ,Monograph           ,0.45881575)
(InCollection        ,xoojtiywxmhhaag.    ,0.45638192)
(InCollection        ,Informal            ,0.37639767)
(InCollection        ,Academic            ,0.37141654)
(InCollection        ,nffddxhfommazfx.    ,0.3674841)
(InCollection        ,fjcuwifrpbnvqcm.    ,0.3616881)
(InCollection        ,arciyehqhefqphh.    ,0.320306)
(InCollection        ,vfuxotmckqvasmr.    ,0.29885393)
(InProceedings       ,fxaksksvvusfblc.    ,0.38287532)
(InProceedings       ,PageRange           ,0.3603592)
(InProceedings       ,zxsuaicwzyzplgo.    ,0.3069529)
(InProceedings       ,lhfcypxzujiqbnd.    ,0.30194712)
(InProceedings       ,gajpkmwildizvln.    ,0.29234987)
(InProceedings       ,Unpublished         ,0.29234987)
(InProceedings       ,lkyjfnnnrqxpwrm.    ,0.29234987)
(InProceedings       ,mcuvuqkoisqgxzn.    ,0.28734413)
(InProceedings       ,jfoscknbeewugcf.    ,0.28546727)
(InProceedings       ,bybnsfrkyofxbdd.    ,0.28288177)
(InProceedings       ,nhurniotlornvxw.    ,0.27774686)
(InProceedings       ,coysouihwkynfji.    ,0.2771146)
(InProceedings       ,xhvzufvmkloxuus.    ,0.2727411)
(InProceedings       ,srnbbgkrxjkdjwt.    ,0.27086425)
(InProceedings       ,Article             ,0.27086425)
(InProceedings       ,fhzgkpvggrdleix.    ,0.25626123)
(InProceedings       ,ffgvufmsmhjnupm.    ,0.25626123)
(InProceedings       ,ffxnlkbymbmhxfq.    ,0.24854085)
(InProceedings       ,wdwuraulkushlql.    ,0.24790856)
(InProceedings       ,hbyoksazqmsbhbq.    ,0.24353507)
(InProceedings       ,rnzmetlyqnmbxfx.    ,0.24165821)
(InProceedings       ,lftrehjozbgnjlx.    ,0.24165821)
(InProceedings       ,cmcbeitzvwdffhi.    ,0.23907273)
(InProceedings       ,xoojtiywxmhhaag.    ,0.2244697)
(InProceedings       ,dyrmixxqvfwkhwc.    ,0.2244697)
(InProceedings       ,Monograph           ,0.2244697)
(InProceedings       ,Institution         ,0.18949783)
(InProceedings       ,fjcuwifrpbnvqcm.    ,0.14437887)
(InProceedings       ,nffddxhfommazfx.    ,0.1435142)
(InProceedings       ,Informal            ,0.13718392)
(InProceedings       ,Academic            ,0.10299677)
(InProceedings       ,vfuxotmckqvasmr.    ,0.09614773)
(InProceedings       ,arciyehqhefqphh.    ,0.088393755)
(Informal            ,Informal            ,0.72710264)
(Informal            ,lhfcypxzujiqbnd.    ,0.47758663)
(Informal            ,nffddxhfommazfx.    ,0.47688615)
(Informal            ,mcuvuqkoisqgxzn.    ,0.4483806)
(Informal            ,xhvzufvmkloxuus.    ,0.4483806)
(Informal            ,PageRange           ,0.44675803)
(Informal            ,hbyoksazqmsbhbq.    ,0.43377757)
(Informal            ,zxsuaicwzyzplgo.    ,0.4330476)
(Informal            ,Monograph           ,0.42505592)
(Informal            ,ffxnlkbymbmhxfq.    ,0.4184446)
(Informal            ,lkyjfnnnrqxpwrm.    ,0.4184446)
(Informal            ,jfoscknbeewugcf.    ,0.41819334)
(Informal            ,Unpublished         ,0.40915173)
(Informal            ,srnbbgkrxjkdjwt.    ,0.40359035)
(Informal            ,bybnsfrkyofxbdd.    ,0.399095)
(Informal            ,rnzmetlyqnmbxfx.    ,0.3889873)
(Informal            ,lftrehjozbgnjlx.    ,0.3889873)
(Informal            ,dyrmixxqvfwkhwc.    ,0.38449198)
(Informal            ,fxaksksvvusfblc.    ,0.38317764)
(Informal            ,fhzgkpvggrdleix.    ,0.37999666)
(Informal            ,nhurniotlornvxw.    ,0.3778746)
(Informal            ,Institution         ,0.37314513)
(Informal            ,fjcuwifrpbnvqcm.    ,0.3687836)
(Informal            ,cmcbeitzvwdffhi.    ,0.36539364)
(Informal            ,ffgvufmsmhjnupm.    ,0.36539364)
(Informal            ,Academic            ,0.36406326)
(Informal            ,vfuxotmckqvasmr.    ,0.36383706)
(Informal            ,arciyehqhefqphh.    ,0.36098328)
(Informal            ,Article             ,0.35978127)
(Informal            ,xoojtiywxmhhaag.    ,0.35079062)
(Informal            ,gajpkmwildizvln.    ,0.34866858)
(Informal            ,coysouihwkynfji.    ,0.3227016)
(Informal            ,wdwuraulkushlql.    ,0.29349557)
(Institution         ,Institution         ,1.194189)
(Institution         ,coysouihwkynfji.    ,0.5777308)
(Institution         ,wdwuraulkushlql.    ,0.5193187)
(Institution         ,fxaksksvvusfblc.    ,0.46588844)
(Institution         ,lhfcypxzujiqbnd.    ,0.44407684)
(Institution         ,Informal            ,0.4438543)
(Institution         ,mcuvuqkoisqgxzn.    ,0.42947385)
(Institution         ,nffddxhfommazfx.    ,0.425389)
(Institution         ,hbyoksazqmsbhbq.    ,0.4148708)
(Institution         ,gajpkmwildizvln.    ,0.40886804)
(Institution         ,bybnsfrkyofxbdd.    ,0.40170616)
(Institution         ,xhvzufvmkloxuus.    ,0.4002678)
(Institution         ,nhurniotlornvxw.    ,0.39426506)
(Institution         ,Article             ,0.39084092)
(Institution         ,PageRange           ,0.3856648)
(Institution         ,cmcbeitzvwdffhi.    ,0.38022053)
(Institution         ,srnbbgkrxjkdjwt.    ,0.38022053)
(Institution         ,rnzmetlyqnmbxfx.    ,0.38022053)
(Institution         ,jfoscknbeewugcf.    ,0.38022053)
(Institution         ,dyrmixxqvfwkhwc.    ,0.37250012)
(Institution         ,arciyehqhefqphh.    ,0.37023795)
(Institution         ,xoojtiywxmhhaag.    ,0.36561754)
(Institution         ,fjcuwifrpbnvqcm.    ,0.3641499)
(Institution         ,zxsuaicwzyzplgo.    ,0.3623158)
(Institution         ,lftrehjozbgnjlx.    ,0.3510145)
(Institution         ,Academic            ,0.34800798)
(Institution         ,ffgvufmsmhjnupm.    ,0.3441319)
(Institution         ,Monograph           ,0.34329408)
(Institution         ,Unpublished         ,0.33841994)
(Institution         ,vfuxotmckqvasmr.    ,0.33494386)
(Institution         ,ffxnlkbymbmhxfq.    ,0.33310977)
(Institution         ,lkyjfnnnrqxpwrm.    ,0.33310977)
(Institution         ,fhzgkpvggrdleix.    ,0.32952884)
(Journal             ,PageRange           ,0.3167646)
(Journal             ,fxaksksvvusfblc.    ,0.30043563)
(Journal             ,mcuvuqkoisqgxzn.    ,0.29080367)
(Journal             ,xhvzufvmkloxuus.    ,0.27620065)
(Journal             ,lhfcypxzujiqbnd.    ,0.27620065)
(Journal             ,Monograph           ,0.26244813)
(Journal             ,jfoscknbeewugcf.    ,0.25109023)
(Journal             ,hbyoksazqmsbhbq.    ,0.24699464)
(Journal             ,ffgvufmsmhjnupm.    ,0.23648721)
(Journal             ,zxsuaicwzyzplgo.    ,0.23648721)
(Journal             ,nhurniotlornvxw.    ,0.23648721)
(Journal             ,lftrehjozbgnjlx.    ,0.23648721)
(Journal             ,wdwuraulkushlql.    ,0.2218842)
(Journal             ,fhzgkpvggrdleix.    ,0.2218842)
(Journal             ,lkyjfnnnrqxpwrm.    ,0.2218842)
(Journal             ,coysouihwkynfji.    ,0.2218842)
(Journal             ,Unpublished         ,0.21259136)
(Journal             ,gajpkmwildizvln.    ,0.20728119)
(Journal             ,xoojtiywxmhhaag.    ,0.20728119)
(Journal             ,cmcbeitzvwdffhi.    ,0.20728119)
(Journal             ,bybnsfrkyofxbdd.    ,0.20728119)
(Journal             ,srnbbgkrxjkdjwt.    ,0.20728119)
(Journal             ,dyrmixxqvfwkhwc.    ,0.19267818)
(Journal             ,rnzmetlyqnmbxfx.    ,0.19267818)
(Journal             ,ffxnlkbymbmhxfq.    ,0.19267818)
(Journal             ,Article             ,0.17807515)
(Journal             ,Informal            ,0.1747567)
(Journal             ,nffddxhfommazfx.    ,0.11776772)
(Journal             ,fjcuwifrpbnvqcm.    ,0.097984314)
(Journal             ,Institution         ,0.061912388)
(Journal             ,arciyehqhefqphh.    ,0.05660221)
(Journal             ,vfuxotmckqvasmr.    ,0.04975317)
(Journal             ,Academic            ,0.027396176)
(LectureNotes        ,Unpublished         ,1.2181026)
(LectureNotes        ,lkyjfnnnrqxpwrm.    ,1.2132349)
(LectureNotes        ,zxsuaicwzyzplgo.    ,1.1986319)
(LectureNotes        ,ffxnlkbymbmhxfq.    ,1.1840289)
(LectureNotes        ,cmcbeitzvwdffhi.    ,0.59703404)
(LectureNotes        ,PageRange           ,0.590016)
(LectureNotes        ,coysouihwkynfji.    ,0.5892211)
(LectureNotes        ,lhfcypxzujiqbnd.    ,0.5827145)
(LectureNotes        ,xoojtiywxmhhaag.    ,0.58243096)
(LectureNotes        ,wdwuraulkushlql.    ,0.5746181)
(LectureNotes        ,Article             ,0.5592097)
(LectureNotes        ,fhzgkpvggrdleix.    ,0.55434203)
(LectureNotes        ,bybnsfrkyofxbdd.    ,0.55434203)
(LectureNotes        ,srnbbgkrxjkdjwt.    ,0.539739)
(LectureNotes        ,rnzmetlyqnmbxfx.    ,0.539739)
(LectureNotes        ,jfoscknbeewugcf.    ,0.539739)
(LectureNotes        ,lftrehjozbgnjlx.    ,0.539739)
(LectureNotes        ,mcuvuqkoisqgxzn.    ,0.53890544)
(LectureNotes        ,xhvzufvmkloxuus.    ,0.53890544)
(LectureNotes        ,gajpkmwildizvln.    ,0.53229785)
(LectureNotes        ,nhurniotlornvxw.    ,0.53229785)
(LectureNotes        ,fxaksksvvusfblc.    ,0.5288755)
(LectureNotes        ,Monograph           ,0.52756983)
(LectureNotes        ,dyrmixxqvfwkhwc.    ,0.525136)
(LectureNotes        ,ffgvufmsmhjnupm.    ,0.525136)
(LectureNotes        ,hbyoksazqmsbhbq.    ,0.5243024)
(LectureNotes        ,arciyehqhefqphh.    ,0.47556108)
(LectureNotes        ,fjcuwifrpbnvqcm.    ,0.47313416)
(LectureNotes        ,Academic            ,0.46582577)
(LectureNotes        ,vfuxotmckqvasmr.    ,0.454109)
(LectureNotes        ,Informal            ,0.439167)
(LectureNotes        ,nffddxhfommazfx.    ,0.39507553)
(LectureNotes        ,Institution         ,0.35301787)
(Manual              ,Unpublished         ,1.004786)
(Manual              ,zxsuaicwzyzplgo.    ,0.9795626)
(Manual              ,ffxnlkbymbmhxfq.    ,0.9795626)
(Manual              ,lkyjfnnnrqxpwrm.    ,0.9795626)
(Manual              ,Monograph           ,0.5972122)
(Manual              ,PageRange           ,0.5722863)
(Manual              ,wdwuraulkushlql.    ,0.5493903)
(Manual              ,mcuvuqkoisqgxzn.    ,0.5463254)
(Manual              ,xoojtiywxmhhaag.    ,0.5403023)
(Manual              ,cmcbeitzvwdffhi.    ,0.5403023)
(Manual              ,fxaksksvvusfblc.    ,0.53568006)
(Manual              ,coysouihwkynfji.    ,0.5347873)
(Manual              ,ffgvufmsmhjnupm.    ,0.5290648)
(Manual              ,Article             ,0.5248925)
(Manual              ,nhurniotlornvxw.    ,0.51951724)
(Manual              ,xhvzufvmkloxuus.    ,0.51711935)
(Manual              ,rnzmetlyqnmbxfx.    ,0.5144618)
(Manual              ,jfoscknbeewugcf.    ,0.5144618)
(Manual              ,gajpkmwildizvln.    ,0.50491416)
(Manual              ,hbyoksazqmsbhbq.    ,0.5025163)
(Manual              ,lhfcypxzujiqbnd.    ,0.5025163)
(Manual              ,dyrmixxqvfwkhwc.    ,0.49985874)
(Manual              ,bybnsfrkyofxbdd.    ,0.49985874)
(Manual              ,srnbbgkrxjkdjwt.    ,0.49985874)
(Manual              ,lftrehjozbgnjlx.    ,0.49985874)
(Manual              ,fhzgkpvggrdleix.    ,0.48525578)
(Manual              ,Informal            ,0.46031803)
(Manual              ,Academic            ,0.40787712)
(Manual              ,fjcuwifrpbnvqcm.    ,0.4017994)
(Manual              ,arciyehqhefqphh.    ,0.38962334)
(Manual              ,nffddxhfommazfx.    ,0.38789243)
(Manual              ,vfuxotmckqvasmr.    ,0.3827743)
(Manual              ,Institution         ,0.33763844)
(MastersThesis       ,nhurniotlornvxw.    ,1.2663443)
(MastersThesis       ,gajpkmwildizvln.    ,1.2517412)
(MastersThesis       ,PageRange           ,0.5975543)
(MastersThesis       ,Article             ,0.59136105)
(MastersThesis       ,Unpublished         ,0.5699679)
(MastersThesis       ,fhzgkpvggrdleix.    ,0.56420076)
(MastersThesis       ,ffgvufmsmhjnupm.    ,0.56420076)
(MastersThesis       ,Monograph           ,0.56010914)
(MastersThesis       ,zxsuaicwzyzplgo.    ,0.55536497)
(MastersThesis       ,fxaksksvvusfblc.    ,0.5502831)
(MastersThesis       ,srnbbgkrxjkdjwt.    ,0.547552)
(MastersThesis       ,rnzmetlyqnmbxfx.    ,0.547552)
(MastersThesis       ,jfoscknbeewugcf.    ,0.547552)
(MastersThesis       ,xoojtiywxmhhaag.    ,0.5309031)
(MastersThesis       ,bybnsfrkyofxbdd.    ,0.5309031)
(MastersThesis       ,wdwuraulkushlql.    ,0.5276644)
(MastersThesis       ,coysouihwkynfji.    ,0.5276644)
(MastersThesis       ,ffxnlkbymbmhxfq.    ,0.5261589)
(MastersThesis       ,lkyjfnnnrqxpwrm.    ,0.5261589)
(MastersThesis       ,hbyoksazqmsbhbq.    ,0.52453923)
(MastersThesis       ,xhvzufvmkloxuus.    ,0.52453923)
(MastersThesis       ,lftrehjozbgnjlx.    ,0.51834595)
(MastersThesis       ,cmcbeitzvwdffhi.    ,0.51630014)
(MastersThesis       ,mcuvuqkoisqgxzn.    ,0.5099362)
(MastersThesis       ,dyrmixxqvfwkhwc.    ,0.50169706)
(MastersThesis       ,lhfcypxzujiqbnd.    ,0.4953332)
(MastersThesis       ,Institution         ,0.48235115)
(MastersThesis       ,Academic            ,0.40943018)
(MastersThesis       ,nffddxhfommazfx.    ,0.3953123)
(MastersThesis       ,vfuxotmckqvasmr.    ,0.37337512)
(MastersThesis       ,arciyehqhefqphh.    ,0.36562115)
(MastersThesis       ,fjcuwifrpbnvqcm.    ,0.3631942)
(MastersThesis       ,Informal            ,0.35599923)
(Misc                ,Unpublished         ,0.41262656)
(Misc                ,mcuvuqkoisqgxzn.    ,0.4043557)
(Misc                ,xhvzufvmkloxuus.    ,0.3897527)
(Misc                ,Article             ,0.3755525)
(Misc                ,lhfcypxzujiqbnd.    ,0.37514967)
(Misc                ,zxsuaicwzyzplgo.    ,0.37280014)
(Misc                ,hbyoksazqmsbhbq.    ,0.36054665)
(Misc                ,ffxnlkbymbmhxfq.    ,0.35819712)
(Misc                ,lkyjfnnnrqxpwrm.    ,0.35819712)
(Misc                ,jfoscknbeewugcf.    ,0.35051876)
(Misc                ,lftrehjozbgnjlx.    ,0.35051876)
(Misc                ,PageRange           ,0.34594363)
(Misc                ,dyrmixxqvfwkhwc.    ,0.33647427)
(Misc                ,srnbbgkrxjkdjwt.    ,0.33591574)
(Misc                ,rnzmetlyqnmbxfx.    ,0.33591574)
(Misc                ,Monograph           ,0.3348517)
(Misc                ,bybnsfrkyofxbdd.    ,0.32187125)
(Misc                ,cmcbeitzvwdffhi.    ,0.3078268)
(Misc                ,gajpkmwildizvln.    ,0.3046437)
(Misc                ,fxaksksvvusfblc.    ,0.29696327)
(Misc                ,fhzgkpvggrdleix.    ,0.29322377)
(Misc                ,xoojtiywxmhhaag.    ,0.29322377)
(Misc                ,ffgvufmsmhjnupm.    ,0.27862075)
(Misc                ,nhurniotlornvxw.    ,0.27543765)
(Misc                ,nffddxhfommazfx.    ,0.23131976)
(Misc                ,coysouihwkynfji.    ,0.2218842)
(Misc                ,Academic            ,0.20825836)
(Misc                ,wdwuraulkushlql.    ,0.20728119)
(Misc                ,fjcuwifrpbnvqcm.    ,0.15472086)
(Misc                ,vfuxotmckqvasmr.    ,0.13569574)
(Misc                ,arciyehqhefqphh.    ,0.12794177)
(Misc                ,Institution         ,0.123982)
(Misc                ,Informal            ,0.11831988)
(Monograph           ,Monograph           ,0.62025726)
(Monograph           ,ffxnlkbymbmhxfq.    ,0.32345268)
(Monograph           ,lkyjfnnnrqxpwrm.    ,0.32345268)
(Monograph           ,Unpublished         ,0.31415984)
(Monograph           ,ffgvufmsmhjnupm.    ,0.31359392)
(Monograph           ,coysouihwkynfji.    ,0.3103552)
(Monograph           ,mcuvuqkoisqgxzn.    ,0.30900294)
(Monograph           ,zxsuaicwzyzplgo.    ,0.30884966)
(Monograph           ,hbyoksazqmsbhbq.    ,0.29439995)
(Monograph           ,xhvzufvmkloxuus.    ,0.29439995)
(Monograph           ,lhfcypxzujiqbnd.    ,0.29439995)
(Monograph           ,PageRange           ,0.29277736)
(Monograph           ,fhzgkpvggrdleix.    ,0.2843879)
(Monograph           ,dyrmixxqvfwkhwc.    ,0.2843879)
(Monograph           ,bybnsfrkyofxbdd.    ,0.2843879)
(Monograph           ,wdwuraulkushlql.    ,0.28114915)
(Monograph           ,fxaksksvvusfblc.    ,0.26981038)
(Monograph           ,srnbbgkrxjkdjwt.    ,0.2677391)
(Monograph           ,rnzmetlyqnmbxfx.    ,0.2677391)
(Monograph           ,jfoscknbeewugcf.    ,0.2677391)
(Monograph           ,cmcbeitzvwdffhi.    ,0.25313607)
(Monograph           ,nhurniotlornvxw.    ,0.25109023)
(Monograph           ,xoojtiywxmhhaag.    ,0.23853305)
(Monograph           ,lftrehjozbgnjlx.    ,0.23853305)
(Monograph           ,Article             ,0.20932701)
(Monograph           ,gajpkmwildizvln.    ,0.20728119)
(Monograph           ,Informal            ,0.14800215)
(Monograph           ,nffddxhfommazfx.    ,0.135967)
(Monograph           ,Institution         ,0.095108464)
(Monograph           ,arciyehqhefqphh.    ,0.087854065)
(Monograph           ,fjcuwifrpbnvqcm.    ,0.085427135)
(Monograph           ,vfuxotmckqvasmr.    ,0.08100503)
(Monograph           ,Academic            ,0.058648035)
(MotionPicture       ,Article             ,0.6830707)
(MotionPicture       ,rnzmetlyqnmbxfx.    ,0.6538647)
(MotionPicture       ,lhfcypxzujiqbnd.    ,0.64967227)
(MotionPicture       ,lkyjfnnnrqxpwrm.    ,0.6489656)
(MotionPicture       ,mcuvuqkoisqgxzn.    ,0.63506925)
(MotionPicture       ,zxsuaicwzyzplgo.    ,0.6343626)
(MotionPicture       ,lftrehjozbgnjlx.    ,0.62465864)
(MotionPicture       ,Monograph           ,0.62261283)
(MotionPicture       ,xhvzufvmkloxuus.    ,0.62046623)
(MotionPicture       ,Unpublished         ,0.61975956)
(MotionPicture       ,ffxnlkbymbmhxfq.    ,0.61975956)
(MotionPicture       ,srnbbgkrxjkdjwt.    ,0.6100557)
(MotionPicture       ,jfoscknbeewugcf.    ,0.6100557)
(MotionPicture       ,cmcbeitzvwdffhi.    ,0.60596406)
(MotionPicture       ,PageRange           ,0.6058632)
(MotionPicture       ,bybnsfrkyofxbdd.    ,0.5934068)
(MotionPicture       ,hbyoksazqmsbhbq.    ,0.5912602)
(MotionPicture       ,dyrmixxqvfwkhwc.    ,0.56420076)
(MotionPicture       ,fhzgkpvggrdleix.    ,0.562155)
(MotionPicture       ,xoojtiywxmhhaag.    ,0.562155)
(MotionPicture       ,ffgvufmsmhjnupm.    ,0.562155)
(MotionPicture       ,gajpkmwildizvln.    ,0.55868256)
(MotionPicture       ,nhurniotlornvxw.    ,0.55868256)
(MotionPicture       ,fxaksksvvusfblc.    ,0.53367996)
(MotionPicture       ,coysouihwkynfji.    ,0.48300248)
(MotionPicture       ,nffddxhfommazfx.    ,0.4620332)
(MotionPicture       ,wdwuraulkushlql.    ,0.43919343)
(MotionPicture       ,fjcuwifrpbnvqcm.    ,0.42365208)
(MotionPicture       ,Informal            ,0.41645712)
(MotionPicture       ,arciyehqhefqphh.    ,0.41147602)
(MotionPicture       ,Academic            ,0.41147602)
(MotionPicture       ,vfuxotmckqvasmr.    ,0.40462697)
(MotionPicture       ,Institution         ,0.38543278)
(PageRange           ,PageRange           ,1.5237254)
(PageRange           ,mcuvuqkoisqgxzn.    ,1.1878561)
(PageRange           ,lhfcypxzujiqbnd.    ,1.173253)
(PageRange           ,hbyoksazqmsbhbq.    ,1.15865)
(PageRange           ,xhvzufvmkloxuus.    ,1.15865)
(PageRange           ,nffddxhfommazfx.    ,1.0440261)
(PageRange           ,fxaksksvvusfblc.    ,0.5984414)
(PageRange           ,wdwuraulkushlql.    ,0.56420076)
(PageRange           ,coysouihwkynfji.    ,0.56420076)
(PageRange           ,Article             ,0.5472481)
(PageRange           ,Monograph           ,0.53150547)
(PageRange           ,srnbbgkrxjkdjwt.    ,0.5212872)
(PageRange           ,bybnsfrkyofxbdd.    ,0.518525)
(PageRange           ,fhzgkpvggrdleix.    ,0.5094464)
(PageRange           ,rnzmetlyqnmbxfx.    ,0.5066842)
(PageRange           ,jfoscknbeewugcf.    ,0.5066842)
(PageRange           ,dyrmixxqvfwkhwc.    ,0.50392205)
(PageRange           ,xoojtiywxmhhaag.    ,0.49208114)
(PageRange           ,cmcbeitzvwdffhi.    ,0.49208114)
(PageRange           ,lftrehjozbgnjlx.    ,0.49208114)
(PageRange           ,ffgvufmsmhjnupm.    ,0.48024035)
(PageRange           ,zxsuaicwzyzplgo.    ,0.46839947)
(PageRange           ,Unpublished         ,0.4445036)
(PageRange           ,gajpkmwildizvln.    ,0.43919343)
(PageRange           ,nhurniotlornvxw.    ,0.43919343)
(PageRange           ,lkyjfnnnrqxpwrm.    ,0.43919343)
(PageRange           ,ffxnlkbymbmhxfq.    ,0.4245904)
(PageRange           ,fjcuwifrpbnvqcm.    ,0.3681813)
(PageRange           ,Informal            ,0.35936373)
(PageRange           ,arciyehqhefqphh.    ,0.3560052)
(PageRange           ,Academic            ,0.35438263)
(PageRange           ,vfuxotmckqvasmr.    ,0.34915617)
(PageRange           ,Institution         ,0.31660345)
(Part                ,PageRange           ,0.54913163)
(Part                ,Article             ,0.49934807)
(Part                ,hbyoksazqmsbhbq.    ,0.45177823)
(Part                ,lhfcypxzujiqbnd.    ,0.45177823)
(Part                ,lkyjfnnnrqxpwrm.    ,0.44875005)
(Part                ,Unpublished         ,0.43945718)
(Part                ,mcuvuqkoisqgxzn.    ,0.43717524)
(Part                ,xhvzufvmkloxuus.    ,0.43717524)
(Part                ,zxsuaicwzyzplgo.    ,0.434147)
(Part                ,srnbbgkrxjkdjwt.    ,0.42007455)
(Part                ,ffxnlkbymbmhxfq.    ,0.419544)
(Part                ,Monograph           ,0.4149618)
(Part                ,ffgvufmsmhjnupm.    ,0.41309425)
(Part                ,nffddxhfommazfx.    ,0.41012153)
(Part                ,fxaksksvvusfblc.    ,0.40808052)
(Part                ,rnzmetlyqnmbxfx.    ,0.40547156)
(Part                ,lftrehjozbgnjlx.    ,0.40547156)
(Part                ,jfoscknbeewugcf.    ,0.39086854)
(Part                ,dyrmixxqvfwkhwc.    ,0.3873784)
(Part                ,bybnsfrkyofxbdd.    ,0.3873784)
(Part                ,fhzgkpvggrdleix.    ,0.3838882)
(Part                ,gajpkmwildizvln.    ,0.38187784)
(Part                ,nhurniotlornvxw.    ,0.38187784)
(Part                ,xoojtiywxmhhaag.    ,0.36928523)
(Part                ,cmcbeitzvwdffhi.    ,0.36928523)
(Part                ,arciyehqhefqphh.    ,0.3688203)
(Part                ,Informal            ,0.35886848)
(Part                ,Academic            ,0.35762322)
(Part                ,vfuxotmckqvasmr.    ,0.33936945)
(Part                ,Institution         ,0.32960194)
(Part                ,fjcuwifrpbnvqcm.    ,0.3279373)
(Part                ,wdwuraulkushlql.    ,0.31500572)
(Part                ,coysouihwkynfji.    ,0.30040267)
(PersonList          ,fxaksksvvusfblc.    ,1.2055513)
(PersonList          ,PageRange           ,0.6577357)
(PersonList          ,lhfcypxzujiqbnd.    ,0.64021206)
(PersonList          ,mcuvuqkoisqgxzn.    ,0.62560904)
(PersonList          ,hbyoksazqmsbhbq.    ,0.62560904)
(PersonList          ,xhvzufvmkloxuus.    ,0.611006)
(PersonList          ,coysouihwkynfji.    ,0.58457094)
(PersonList          ,wdwuraulkushlql.    ,0.55536497)
(PersonList          ,Article             ,0.52889436)
(PersonList          ,jfoscknbeewugcf.    ,0.5113707)
(PersonList          ,lftrehjozbgnjlx.    ,0.5113707)
(PersonList          ,rnzmetlyqnmbxfx.    ,0.49676776)
(PersonList          ,bybnsfrkyofxbdd.    ,0.4898851)
(PersonList          ,cmcbeitzvwdffhi.    ,0.48216468)
(PersonList          ,srnbbgkrxjkdjwt.    ,0.48216468)
(PersonList          ,nffddxhfommazfx.    ,0.48177916)
(PersonList          ,Unpublished         ,0.47901982)
(PersonList          ,fhzgkpvggrdleix.    ,0.47528213)
(PersonList          ,ffgvufmsmhjnupm.    ,0.47528213)
(PersonList          ,Monograph           ,0.46944088)
(PersonList          ,lkyjfnnnrqxpwrm.    ,0.46839947)
(PersonList          ,xoojtiywxmhhaag.    ,0.46756172)
(PersonList          ,dyrmixxqvfwkhwc.    ,0.46067905)
(PersonList          ,gajpkmwildizvln.    ,0.45379645)
(PersonList          ,zxsuaicwzyzplgo.    ,0.45379645)
(PersonList          ,nhurniotlornvxw.    ,0.45379645)
(PersonList          ,ffxnlkbymbmhxfq.    ,0.4099874)
(PersonList          ,Institution         ,0.38692906)
(PersonList          ,arciyehqhefqphh.    ,0.34608877)
(PersonList          ,Informal            ,0.34522867)
(PersonList          ,fjcuwifrpbnvqcm.    ,0.3436618)
(PersonList          ,Academic            ,0.34024754)
(PersonList          ,vfuxotmckqvasmr.    ,0.32463667)
(PhdThesis           ,gajpkmwildizvln.    ,1.2663443)
(PhdThesis           ,nhurniotlornvxw.    ,1.2663443)
(PhdThesis           ,fhzgkpvggrdleix.    ,0.5788038)
(PhdThesis           ,ffgvufmsmhjnupm.    ,0.5788038)
(PhdThesis           ,zxsuaicwzyzplgo.    ,0.55536497)
(PhdThesis           ,srnbbgkrxjkdjwt.    ,0.547552)
(PhdThesis           ,Unpublished         ,0.54607207)
(PhdThesis           ,Article             ,0.54592943)
(PhdThesis           ,lkyjfnnnrqxpwrm.    ,0.5407619)
(PhdThesis           ,rnzmetlyqnmbxfx.    ,0.532949)
(PhdThesis           ,jfoscknbeewugcf.    ,0.532949)
(PhdThesis           ,xoojtiywxmhhaag.    ,0.5309031)
(PhdThesis           ,coysouihwkynfji.    ,0.5276644)
(PhdThesis           ,ffxnlkbymbmhxfq.    ,0.5261589)
(PhdThesis           ,lhfcypxzujiqbnd.    ,0.52453923)
(PhdThesis           ,PageRange           ,0.5229167)
(PhdThesis           ,fxaksksvvusfblc.    ,0.52107704)
(PhdThesis           ,lftrehjozbgnjlx.    ,0.51834595)
(PhdThesis           ,bybnsfrkyofxbdd.    ,0.51630014)
(PhdThesis           ,wdwuraulkushlql.    ,0.5130614)
(PhdThesis           ,mcuvuqkoisqgxzn.    ,0.5099362)
(PhdThesis           ,hbyoksazqmsbhbq.    ,0.5099362)
(PhdThesis           ,xhvzufvmkloxuus.    ,0.5099362)
(PhdThesis           ,dyrmixxqvfwkhwc.    ,0.50169706)
(PhdThesis           ,cmcbeitzvwdffhi.    ,0.50169706)
(PhdThesis           ,Monograph           ,0.4724911)
(PhdThesis           ,Institution         ,0.4637655)
(PhdThesis           ,Academic            ,0.40618506)
(PhdThesis           ,nffddxhfommazfx.    ,0.3953123)
(PhdThesis           ,arciyehqhefqphh.    ,0.38022414)
(PhdThesis           ,fjcuwifrpbnvqcm.    ,0.3631942)
(PhdThesis           ,vfuxotmckqvasmr.    ,0.34416908)
(PhdThesis           ,Informal            ,0.3267932)
(Proceedings         ,PageRange           ,0.38627928)
(Proceedings         ,zxsuaicwzyzplgo.    ,0.30631554)
(Proceedings         ,jfoscknbeewugcf.    ,0.30178192)
(Proceedings         ,bybnsfrkyofxbdd.    ,0.2940615)
(Proceedings         ,mcuvuqkoisqgxzn.    ,0.29202345)
(Proceedings         ,lhfcypxzujiqbnd.    ,0.29202345)
(Proceedings         ,lkyjfnnnrqxpwrm.    ,0.29171252)
(Proceedings         ,coysouihwkynfji.    ,0.28727144)
(Proceedings         ,xhvzufvmkloxuus.    ,0.27742043)
(Proceedings         ,Article             ,0.26859325)
(Proceedings         ,fhzgkpvggrdleix.    ,0.2648555)
(Proceedings         ,hbyoksazqmsbhbq.    ,0.2628174)
(Proceedings         ,fxaksksvvusfblc.    ,0.2627824)
(Proceedings         ,wdwuraulkushlql.    ,0.2580654)
(Proceedings         ,cmcbeitzvwdffhi.    ,0.25797287)
(Proceedings         ,srnbbgkrxjkdjwt.    ,0.25797287)
(Proceedings         ,Monograph           ,0.25556263)
(Proceedings         ,dyrmixxqvfwkhwc.    ,0.25025246)
(Proceedings         ,ffgvufmsmhjnupm.    ,0.25025246)
(Proceedings         ,Unpublished         ,0.24790348)
(Proceedings         ,ffxnlkbymbmhxfq.    ,0.24790348)
(Proceedings         ,xoojtiywxmhhaag.    ,0.24336986)
(Proceedings         ,gajpkmwildizvln.    ,0.23648721)
(Proceedings         ,rnzmetlyqnmbxfx.    ,0.22876684)
(Proceedings         ,lftrehjozbgnjlx.    ,0.22876684)
(Proceedings         ,nhurniotlornvxw.    ,0.2218842)
(Proceedings         ,nffddxhfommazfx.    ,0.14819351)
(Proceedings         ,fjcuwifrpbnvqcm.    ,0.13407299)
(Proceedings         ,Academic            ,0.117914274)
(Proceedings         ,arciyehqhefqphh.    ,0.10729389)
(Proceedings         ,vfuxotmckqvasmr.    ,0.10044485)
(Proceedings         ,Institution         ,0.07394838)
(Proceedings         ,Informal            ,0.05386296)
(Publisher           ,wdwuraulkushlql.    ,1.049035)
(Publisher           ,coysouihwkynfji.    ,1.0344319)
(Publisher           ,Unpublished         ,0.6019409)
(Publisher           ,fxaksksvvusfblc.    ,0.4850526)
(Publisher           ,xhvzufvmkloxuus.    ,0.4805872)
(Publisher           ,lhfcypxzujiqbnd.    ,0.4805872)
(Publisher           ,mcuvuqkoisqgxzn.    ,0.45138118)
(Publisher           ,PageRange           ,0.44975862)
(Publisher           ,hbyoksazqmsbhbq.    ,0.43677816)
(Publisher           ,Institution         ,0.40047398)
(Publisher           ,zxsuaicwzyzplgo.    ,0.38422316)
(Publisher           ,lkyjfnnnrqxpwrm.    ,0.36962014)
(Publisher           ,Article             ,0.35620368)
(Publisher           ,ffxnlkbymbmhxfq.    ,0.35501713)
(Publisher           ,jfoscknbeewugcf.    ,0.33024275)
(Publisher           ,bybnsfrkyofxbdd.    ,0.31563973)
(Publisher           ,srnbbgkrxjkdjwt.    ,0.31563973)
(Publisher           ,dyrmixxqvfwkhwc.    ,0.30103672)
(Publisher           ,rnzmetlyqnmbxfx.    ,0.30103672)
(Publisher           ,lftrehjozbgnjlx.    ,0.30103672)
(Publisher           ,cmcbeitzvwdffhi.    ,0.2989909)
(Publisher           ,gajpkmwildizvln.    ,0.29575217)
(Publisher           ,nhurniotlornvxw.    ,0.29575217)
(Publisher           ,nffddxhfommazfx.    ,0.29294825)
(Publisher           ,fhzgkpvggrdleix.    ,0.2823421)
(Publisher           ,Monograph           ,0.27183068)
(Publisher           ,xoojtiywxmhhaag.    ,0.26978487)
(Publisher           ,ffgvufmsmhjnupm.    ,0.25313607)
(Publisher           ,fjcuwifrpbnvqcm.    ,0.14588499)
(Publisher           ,arciyehqhefqphh.    ,0.1337089)
(Publisher           ,vfuxotmckqvasmr.    ,0.12685987)
(Publisher           ,Informal            ,0.09488097)
(Publisher           ,Academic            ,0.089899845)
(Reference           ,PageRange           ,0.5028089)
(Reference           ,nffddxhfommazfx.    ,0.40526822)
(Reference           ,xhvzufvmkloxuus.    ,0.37787205)
(Reference           ,lhfcypxzujiqbnd.    ,0.37787205)
(Reference           ,mcuvuqkoisqgxzn.    ,0.363269)
(Reference           ,Article             ,0.3573795)
(Reference           ,fxaksksvvusfblc.    ,0.3521801)
(Reference           ,hbyoksazqmsbhbq.    ,0.348666)
(Reference           ,Informal            ,0.34150216)
(Reference           ,arciyehqhefqphh.    ,0.3323235)
(Reference           ,fhzgkpvggrdleix.    ,0.33141857)
(Reference           ,bybnsfrkyofxbdd.    ,0.33141857)
(Reference           ,srnbbgkrxjkdjwt.    ,0.33141857)
(Reference           ,rnzmetlyqnmbxfx.    ,0.33141857)
(Reference           ,lftrehjozbgnjlx.    ,0.33141857)
(Reference           ,fjcuwifrpbnvqcm.    ,0.32000348)
(Reference           ,dyrmixxqvfwkhwc.    ,0.31681558)
(Reference           ,cmcbeitzvwdffhi.    ,0.31681558)
(Reference           ,zxsuaicwzyzplgo.    ,0.31681558)
(Reference           ,lkyjfnnnrqxpwrm.    ,0.31681558)
(Reference           ,jfoscknbeewugcf.    ,0.31681558)
(Reference           ,Unpublished         ,0.3075227)
(Reference           ,vfuxotmckqvasmr.    ,0.30311748)
(Reference           ,gajpkmwildizvln.    ,0.30221254)
(Reference           ,wdwuraulkushlql.    ,0.30221254)
(Reference           ,ffgvufmsmhjnupm.    ,0.30221254)
(Reference           ,nhurniotlornvxw.    ,0.30221254)
(Reference           ,Academic            ,0.3014949)
(Reference           ,ffxnlkbymbmhxfq.    ,0.28760955)
(Reference           ,coysouihwkynfji.    ,0.28760955)
(Reference           ,xoojtiywxmhhaag.    ,0.2730065)
(Reference           ,Monograph           ,0.2730065)
(Reference           ,Institution         ,0.2558839)
(Report              ,lhfcypxzujiqbnd.    ,0.4004063)
(Report              ,PageRange           ,0.3987837)
(Report              ,nffddxhfommazfx.    ,0.3873889)
(Report              ,hbyoksazqmsbhbq.    ,0.38580325)
(Report              ,xhvzufvmkloxuus.    ,0.38580325)
(Report              ,Informal            ,0.38205534)
(Report              ,Monograph           ,0.37576187)
(Report              ,mcuvuqkoisqgxzn.    ,0.37120026)
(Report              ,lkyjfnnnrqxpwrm.    ,0.36832052)
(Report              ,Article             ,0.35604593)
(Report              ,zxsuaicwzyzplgo.    ,0.35371757)
(Report              ,arciyehqhefqphh.    ,0.35270816)
(Report              ,bybnsfrkyofxbdd.    ,0.34980094)
(Report              ,srnbbgkrxjkdjwt.    ,0.34561524)
(Report              ,rnzmetlyqnmbxfx.    ,0.34561524)
(Report              ,lftrehjozbgnjlx.    ,0.34561524)
(Report              ,Unpublished         ,0.34442466)
(Report              ,fxaksksvvusfblc.    ,0.3427946)
(Report              ,fhzgkpvggrdleix.    ,0.33938366)
(Report              ,cmcbeitzvwdffhi.    ,0.32478067)
(Report              ,ffgvufmsmhjnupm.    ,0.32478067)
(Report              ,ffxnlkbymbmhxfq.    ,0.32451153)
(Report              ,nhurniotlornvxw.    ,0.32362318)
(Report              ,fjcuwifrpbnvqcm.    ,0.32225686)
(Report              ,dyrmixxqvfwkhwc.    ,0.3205949)
(Report              ,vfuxotmckqvasmr.    ,0.31976628)
(Report              ,jfoscknbeewugcf.    ,0.3164092)
(Report              ,gajpkmwildizvln.    ,0.30902013)
(Report              ,Institution         ,0.30612183)
(Report              ,xoojtiywxmhhaag.    ,0.29557464)
(Report              ,Academic            ,0.28371122)
(Report              ,wdwuraulkushlql.    ,0.2643228)
(Report              ,coysouihwkynfji.    ,0.2643228)
(School              ,coysouihwkynfji.    ,1.2663443)
(School              ,wdwuraulkushlql.    ,1.2517412)
(School              ,fxaksksvvusfblc.    ,0.6877588)
(School              ,mcuvuqkoisqgxzn.    ,0.68329346)
(School              ,hbyoksazqmsbhbq.    ,0.68329346)
(School              ,xhvzufvmkloxuus.    ,0.6686903)
(School              ,lhfcypxzujiqbnd.    ,0.6686903)
(School              ,Institution         ,0.6669024)
(School              ,PageRange           ,0.6394844)
(School              ,zxsuaicwzyzplgo.    ,0.61613536)
(School              ,Unpublished         ,0.5922395)
(School              ,ffxnlkbymbmhxfq.    ,0.57232636)
(School              ,dyrmixxqvfwkhwc.    ,0.562155)
(School              ,Article             ,0.5579827)
(School              ,lkyjfnnnrqxpwrm.    ,0.55772334)
(School              ,bybnsfrkyofxbdd.    ,0.547552)
(School              ,jfoscknbeewugcf.    ,0.547552)
(School              ,lftrehjozbgnjlx.    ,0.547552)
(School              ,Monograph           ,0.54592943)
(School              ,nffddxhfommazfx.    ,0.5394635)
(School              ,srnbbgkrxjkdjwt.    ,0.532949)
(School              ,rnzmetlyqnmbxfx.    ,0.51834595)
(School              ,cmcbeitzvwdffhi.    ,0.51630014)
(School              ,nhurniotlornvxw.    ,0.5130614)
(School              ,gajpkmwildizvln.    ,0.4984584)
(School              ,xoojtiywxmhhaag.    ,0.4870941)
(School              ,fhzgkpvggrdleix.    ,0.47044528)
(School              ,ffgvufmsmhjnupm.    ,0.47044528)
(School              ,Informal            ,0.42171282)
(School              ,Academic            ,0.36927187)
(School              ,arciyehqhefqphh.    ,0.36562115)
(School              ,fjcuwifrpbnvqcm.    ,0.3485912)
(School              ,vfuxotmckqvasmr.    ,0.3295661)
(TechReport          ,zxsuaicwzyzplgo.    ,0.6546083)
(TechReport          ,lkyjfnnnrqxpwrm.    ,0.6546083)
(TechReport          ,fxaksksvvusfblc.    ,0.6418045)
(TechReport          ,ffxnlkbymbmhxfq.    ,0.6254023)
(TechReport          ,Unpublished         ,0.59619623)
(TechReport          ,Article             ,0.5625453)
(TechReport          ,srnbbgkrxjkdjwt.    ,0.5537835)
(TechReport          ,rnzmetlyqnmbxfx.    ,0.5537835)
(TechReport          ,jfoscknbeewugcf.    ,0.5537835)
(TechReport          ,lftrehjozbgnjlx.    ,0.5537835)
(TechReport          ,hbyoksazqmsbhbq.    ,0.53057957)
(TechReport          ,lhfcypxzujiqbnd.    ,0.53057957)
(TechReport          ,fhzgkpvggrdleix.    ,0.5256945)
(TechReport          ,bybnsfrkyofxbdd.    ,0.5256945)
(TechReport          ,ffgvufmsmhjnupm.    ,0.5256945)
(TechReport          ,PageRange           ,0.5247384)
(TechReport          ,mcuvuqkoisqgxzn.    ,0.51597655)
(TechReport          ,xhvzufvmkloxuus.    ,0.51597655)
(TechReport          ,dyrmixxqvfwkhwc.    ,0.5110915)
(TechReport          ,coysouihwkynfji.    ,0.5069057)
(TechReport          ,Monograph           ,0.5052503)
(TechReport          ,wdwuraulkushlql.    ,0.49230272)
(TechReport          ,cmcbeitzvwdffhi.    ,0.482444)
(TechReport          ,xoojtiywxmhhaag.    ,0.46784094)
(TechReport          ,nhurniotlornvxw.    ,0.43919343)
(TechReport          ,gajpkmwildizvln.    ,0.4245904)
(TechReport          ,Institution         ,0.38344765)
(TechReport          ,nffddxhfommazfx.    ,0.3721466)
(TechReport          ,Academic            ,0.36389163)
(TechReport          ,arciyehqhefqphh.    ,0.36097103)
(TechReport          ,fjcuwifrpbnvqcm.    ,0.3439411)
(TechReport          ,vfuxotmckqvasmr.    ,0.33951896)
(TechReport          ,Informal            ,0.33090493)
(Unpublished         ,Unpublished         ,1.2365671)
(Unpublished         ,zxsuaicwzyzplgo.    ,0.90069777)
(Unpublished         ,ffxnlkbymbmhxfq.    ,0.90069777)
(Unpublished         ,lkyjfnnnrqxpwrm.    ,0.90069777)
(Unpublished         ,coysouihwkynfji.    ,0.5788603)
(Unpublished         ,lhfcypxzujiqbnd.    ,0.5602754)
(Unpublished         ,fxaksksvvusfblc.    ,0.5502831)
(Unpublished         ,wdwuraulkushlql.    ,0.54965425)
(Unpublished         ,mcuvuqkoisqgxzn.    ,0.54567236)
(Unpublished         ,xhvzufvmkloxuus.    ,0.54567236)
(Unpublished         ,nhurniotlornvxw.    ,0.53886515)
(Unpublished         ,fhzgkpvggrdleix.    ,0.534568)
(Unpublished         ,bybnsfrkyofxbdd.    ,0.534568)
(Unpublished         ,jfoscknbeewugcf.    ,0.534568)
(Unpublished         ,hbyoksazqmsbhbq.    ,0.53106934)
(Unpublished         ,Article             ,0.5305854)
(Unpublished         ,xoojtiywxmhhaag.    ,0.525136)
(Unpublished         ,cmcbeitzvwdffhi.    ,0.525136)
(Unpublished         ,PageRange           ,0.5217765)
(Unpublished         ,ffgvufmsmhjnupm.    ,0.519965)
(Unpublished         ,gajpkmwildizvln.    ,0.5096591)
(Unpublished         ,srnbbgkrxjkdjwt.    ,0.50536203)
(Unpublished         ,rnzmetlyqnmbxfx.    ,0.50536203)
(Unpublished         ,Monograph           ,0.49606913)
(Unpublished         ,lftrehjozbgnjlx.    ,0.49075896)
(Unpublished         ,dyrmixxqvfwkhwc.    ,0.47615597)
(Unpublished         ,fjcuwifrpbnvqcm.    ,0.41583914)
(Unpublished         ,vfuxotmckqvasmr.    ,0.396814)
(Unpublished         ,arciyehqhefqphh.    ,0.38906005)
(Unpublished         ,Informal            ,0.3847483)
(Unpublished         ,Academic            ,0.37976718)
(Unpublished         ,nffddxhfommazfx.    ,0.37263638)
(Unpublished         ,Institution         ,0.33106637)
