Precision,Recall,F-measure,Time,similarity.structure.ConceptNameSimilarity@26c2ada9,similarity.structure.DirectIndividualSimilarity@5981a31c,similarity.structure.CommentTokenSimilarity@35fca90,class similarity.FunctionContainer@FuncoesHierarquia,similarity.structure.DirectSuperClassSimilarity@23e7de8,similarity.structure.DirectSubClassSimilarity@31a227e3,class similarity.FunctionContainer@FuncoesPropriedades,similarity.structure.DirectPropertybyRangeDomainSimilarity@65efeb88,similarity.structure.DirectPropertybyNameSimilarity@1899a6ef
1.0,1.0,1.0,8.344s,0.83,0.0,0.155,0.0,0.605,0.08,0.015,0.125,0.875
1.0,1.0,1.0,2.378s,0.065,0.015,0.925,0.0,0.13,0.365,0.0,0.0,0.625
1.0,1.0,1.0,3.672s,0.03,0.015,0.96,0.0,0.225,0.6,0.0,0.335,0.055
1.0,1.0,1.0,5.849s,0.005,0.0,0.995,0.0,0.135,0.675,0.0,0.03,0.745
1.0,1.0,1.0,9.978s,0.045,0.04,0.765,0.03,0.445,0.465,0.17,0.62,0.19
1.0,1.0,1.0,3.333s,0.995,0.0,0.0,0.0,0.795,0.045,0.005,0.7,0.3
1.0,1.0,1.0,6.86s,0.965,0.03,0.0,0.0,0.05,0.745,0.015,0.86,0.14
1.0,1.0,1.0,5.607s,0.23,0.015,0.76,0.0,0.685,0.065,0.0,0.055,0.475
1.0,1.0,1.0,2.853s,0.005,0.03,0.975,0.0,0.49,0.025,0.0,0.215,0.43
1.0,1.0,1.0,6.333s,0.08,0.005,0.16,0.775,0.095,0.89,0.005,0.275,0.225
1.0,1.0,1.0,3.218s,0.945,0.015,0.015,0.0,0.53,0.255,0.03,0.91,0.09
1.0,1.0,1.0,5.926s,0.155,0.04,0.725,0.05,0.075,0.745,0.08,0.52,0.14
1.0,1.0,1.0,2.283s,0.06,0.045,0.905,0.0,0.09,0.745,0.005,0.215,0.785
1.0,1.0,1.0,3.177s,0.015,0.0,0.985,0.0,0.96,0.0,0.0,0.0,0.78
1.0,1.0,1.0,7.002s,0.495,0.045,0.475,0.0,0.08,0.765,0.0,0.56,0.38
1.0,1.0,1.0,2.061s,0.02,0.015,0.95,0.02,0.46,0.465,0.01,0.06,0.205
1.0,1.0,1.0,2.923s,0.06,0.0,0.0,0.0,0.905,0.05,1.0,0.02,0.92
1.0,1.0,1.0,8.712s,0.83,0.005,0.165,0.005,0.09,0.255,0.0,0.52,0.17
1.0,1.0,1.0,4.871s,0.005,0.0,0.995,0.0,0.37,0.36,0.0,0.595,0.345
1.0,1.0,1.0,3.128s,0.025,0.015,0.955,0.015,0.48,0.01,0.01,0.095,0.26
