Precision,Recall,F-measure
0.845360824742268,0.845360824742268,0.845360824742268
0.845360824742268,0.845360824742268,0.845360824742268
0.5876288659793815,0.5876288659793815,0.5876288659793815
0.8350515463917526,0.8350515463917526,0.8350515463917526
0.8041237113402062,0.8041237113402062,0.8041237113402062
0.8041237113402062,0.8041237113402062,0.8041237113402062
0.8247422680412371,0.8247422680412371,0.8247422680412371
0.8144329896907216,0.8144329896907216,0.8144329896907216
0.845360824742268,0.845360824742268,0.845360824742268
0.845360824742268,0.845360824742268,0.845360824742268
