Precision,Recall,F-measure
0.8350515463917526,0.8350515463917526,0.8350515463917526
0.8350515463917526,0.8350515463917526,0.8350515463917526
0.8350515463917526,0.8350515463917526,0.8350515463917526
0.845360824742268,0.845360824742268,0.845360824742268
0.845360824742268,0.845360824742268,0.845360824742268
0.8144329896907216,0.8144329896907216,0.8144329896907216
0.865979381443299,0.865979381443299,0.8659793814432989
0.8350515463917526,0.8350515463917526,0.8350515463917526
0.845360824742268,0.845360824742268,0.845360824742268
0.845360824742268,0.845360824742268,0.845360824742268
0.8556701030927835,0.8556701030927835,0.8556701030927835
0.8144329896907216,0.8144329896907216,0.8144329896907216
0.8041237113402062,0.8041237113402062,0.8041237113402062
0.845360824742268,0.845360824742268,0.845360824742268
0.845360824742268,0.845360824742268,0.845360824742268
0.8556701030927835,0.8556701030927835,0.8556701030927835
0.865979381443299,0.865979381443299,0.8659793814432989
