Precision,Recall,F-measure
0.6363636363636364,0.6363636363636364,0.6363636363636364
0.5757575757575758,0.5757575757575758,0.5757575757575758
0.696969696969697,0.696969696969697,0.696969696969697
0.5757575757575758,0.5757575757575758,0.5757575757575758
0.696969696969697,0.696969696969697,0.696969696969697
0.6060606060606061,0.6060606060606061,0.6060606060606061
0.6363636363636364,0.6363636363636364,0.6363636363636364
0.696969696969697,0.696969696969697,0.696969696969697
0.696969696969697,0.696969696969697,0.696969696969697
0.696969696969697,0.696969696969697,0.696969696969697
