Precision,Recall,F-measure
0.5463917525773195,0.5463917525773195,0.5463917525773195
0.6907216494845361,0.6907216494845361,0.6907216494845361
0.4639175257731959,0.4639175257731959,0.4639175257731959
0.5567010309278351,0.5567010309278351,0.5567010309278351
0.5773195876288659,0.5773195876288659,0.5773195876288659
0.4536082474226804,0.4536082474226804,0.4536082474226804
0.6701030927835051,0.6701030927835051,0.6701030927835051
0.5773195876288659,0.5773195876288659,0.5773195876288659
0.32989690721649484,0.32989690721649484,0.32989690721649484
