Precision,Recall,F-measure,Time,similarity.structure.ConceptNameSimilarity@38328604,similarity.structure.DirectIndividualSimilarity@cc9c1cd,similarity.structure.CommentTokenSimilarity@46b6bce,similarity.structure.DirectSuperClassSimilarity@7342ba57,similarity.structure.DirectSubClassSimilarity@5f6c109d,similarity.structure.DirectPropertybyRangeDomainSimilarity@1de97514,similarity.structure.DirectPropertybyNameSimilarity@4203587c
0.6185567010309279,0.6185567010309279,0.6185567010309279,24.694s,0.0042201113,0.65559524,0.0,0.0,0.3267941,0.013390595,0.0
0.6391752577319587,0.6391752577319587,0.6391752577319587,10.199s,0.0020993035,0.9157448,0.0020993035,0.0,0.07617143,0.008885212,0.0
0.38144329896907214,0.38144329896907214,0.38144329896907214,4.925s,0.0,0.525,0.005,0.0,0.475,0.0,0.0
0.6391752577319587,0.6391752577319587,0.6391752577319587,10.007s,0.0028600332,0.36645064,0.0,0.0,0.60898507,0.021704243,0.0
0.6082474226804123,0.6082474226804123,0.6082474226804123,10.609s,0.0,0.97326374,0.003819466,0.0,0.0,0.01909733,0.003819466
0.38144329896907214,0.38144329896907214,0.38144329896907214,2.727s,0.0,0.785,0.0,0.0,0.215,0.0,0.0
0.38144329896907214,0.38144329896907214,0.38144329896907214,4.905s,0.0,0.05,0.005,0.0,0.95,0.0,0.0
0.4020618556701031,0.4020618556701031,0.4020618556701031,10.019s,0.002562818,0.9461856,0.002562818,0.0,0.048688754,0.0,0.0
0.38144329896907214,0.38144329896907214,0.38144329896907214,9.424s,0.0,0.94,0.0,0.0,0.06,0.0,0.0
0.6391752577319587,0.6391752577319587,0.6391752577319587,10.091s,0.37354568,0.24750413,0.2226789,0.13103971,0.09978206,0.5089019,0.23095942
0.4639175257731959,0.4639175257731959,0.4639175257731959,10.316s,0.0,0.31189823,0.0,0.0049503725,0.678201,0.0,0.0049503725
0.41237113402061853,0.41237113402061853,0.41237113402061853,10.125s,0.0019000019,0.5715442,0.0019000019,0.0,0.4227558,0.0,0.0019000019
0.5670103092783505,0.5670103092783505,0.5670103092783505,9.986s,0.0049503725,0.6584243,0.0,0.0,0.33167496,0.0049503725,0.0
0.6082474226804123,0.6082474226804123,0.6082474226804123,10.293s,0.0,0.40389174,0.0,0.007387721,0.5741166,0.019603929,0.0
0.6185567010309279,0.6185567010309279,0.6185567010309279,11.088s,0.0039551696,0.16158026,0.0,0.0,0.8219146,0.012549924,0.0
0.6185567010309279,0.6185567010309279,0.6185567010309279,9.995s,0.00399482,0.1709687,0.0,0.0,0.81236076,0.012675736,0.0
0.5567010309278351,0.5567010309278351,0.5567010309278351,10.132s,0.0,0.30305418,0.0,0.04891565,0.63674194,0.0112882275,0.0
0.6185567010309279,0.6185567010309279,0.6185567010309279,10.088s,0.0,0.45194852,0.0,0.0,0.5049985,0.043052956,0.0
0.5876288659793815,0.5876288659793815,0.5876288659793815,9.849s,0.0034055186,0.28080317,0.0,0.0034055186,0.7077693,0.0046165017,0.0
0.422680412371134,0.422680412371134,0.422680412371134,9.578s,0.0,0.98113364,0.00628879,0.0,0.0,0.0,0.01257758
