Precision,Recall,F-measure
0.6363636363636364,0.6363636363636364,0.6363636363636364
0.3939393939393939,0.3939393939393939,0.3939393939393939
0.7272727272727273,0.7272727272727273,0.7272727272727273
0.5757575757575758,0.5757575757575758,0.5757575757575758
0.30303030303030304,0.30303030303030304,0.30303030303030304
0.2727272727272727,0.2727272727272727,0.2727272727272727
0.6363636363636364,0.6363636363636364,0.6363636363636364
