Precision	Recall	F-measure	Time	similarity.structure.ConceptNameSimilarity@297843d9	similarity.structure.DirectIndividualSimilarity@2358f360	similarity.structure.CommentTokenSimilarity@1a615743	class similarity.FunctionContainer@FuncoesHierarquia	similarity.structure.DirectSuperClassSimilarity@1c5d0bf3	similarity.structure.DirectSubClassSimilarity@77d0e52a	class similarity.FunctionContainer@FuncoesPropriedades	similarity.structure.DirectPropertybyRangeDomainSimilarity@13f7cb43	similarity.structure.DirectPropertybyNameSimilarity@33c5d31
1,0	1,0	1,0	3,465s	0,005	0,0	0,995	0,0	0,705	0,245	0,0	0,0	0,95
1,0	1,0	1,0	1,459s	0,995	0,005	0,0	0,0	0,415	0,055	0,0	0,345	0,455
1,0	1,0	1,0	5,855s	0,235	0,72	0,045	0,0	0,92	0,05	0,0	0,86	0,105
1,0	1,0	1,0	1,322s	0,0	0,13	0,87	0,0	0,485	0,33	0,0	0,92	0,04
1,0	1,0	1,0	0,519s	0,225	0,005	0,77	0,0	0,33	0,14	0,0	0,24	0,68
1,0	1,0	1,0	4,42s	0,005	0,21	0,78	0,0	0,255	0,55	0,015	0,035	0,7
1,0	1,0	1,0	1,134s	0,005	0,89	0,0	0,105	0,0	0,99	0,005	0,63	0,0
1,0	1,0	1,0	1,475s	0,01	0,99	0,0	0,0	0,265	0,575	0,0	0,11	0,01
1,0	1,0	1,0	0,362s	0,64	0,34	0,005	0,025	0,0	0,6	0,0	0,255	0,255
1,0	1,0	1,0	4,577s	0,025	0,855	0,05	0,08	0,36	0,64	0,005	0,1	0,425
1,0	1,0	1,0	0,854s	0,055	0,0	0,945	0,0	0,66	0,21	0,0	0,705	0,16
1,0	1,0	1,0	2,405s	0,07	0,93	0,0	0,0	0,07	0,095	0,0	0,53	0,29
1,0	1,0	1,0	1,496s	0,595	0,01	0,395	0,0	0,115	0,565	0,0	0,055	0,61
1,0	1,0	1,0	0,431s	0,0	0,475	0,525	0,0	0,285	0,205	0,0	0,125	0,845
1,0	1,0	1,0	0,456s	0,0	0,995	0,005	0,0	0,925	0,03	0,0	0,145	0,465
1,0	1,0	1,0	4,505s	0,025	0,095	0,87	0,01	0,055	0,62	0,02	0,485	0,025
1,0	1,0	1,0	2,169s	0,0	0,085	0,915	0,0	0,53	0,445	0,0	0,0	0,335
1,0	1,0	1,0	9,87s	0,845	0,13	0,02	0,005	0,01	0,36	0,01	0,365	0,425
1,0	1,0	1,0	3,4s	0,015	0,015	0,97	0,0	0,015	0,37	0,0	0,24	0,68
1,0	1,0	1,0	1,628s	0,005	0,86	0,135	0,0	0,02	0,23	0,0	0,23	0,515
