Precision,Recall,F-measure
0.20618556701030927,0.20618556701030927,0.20618556701030927
0.5051546391752577,0.5051546391752577,0.5051546391752577
0.0,0.0,NaN
0.7835051546391752,0.7835051546391752,0.7835051546391752
0.7731958762886598,0.7731958762886598,0.7731958762886598
0.4742268041237113,0.4742268041237113,0.4742268041237113
