Precision,Recall,F-measure
0.5773195876288659,0.5773195876288659,0.5773195876288659
0.0,0.0,NaN
0.0,0.0,NaN
0.6804123711340206,0.6804123711340206,0.6804123711340206
0.0,0.0,NaN
0.5773195876288659,0.5773195876288659,0.5773195876288659
0.6391752577319587,0.6391752577319587,0.6391752577319587
0.422680412371134,0.422680412371134,0.422680412371134
0.5463917525773195,0.5463917525773195,0.5463917525773195
