Precision,Recall,F-measure
0.6363636363636364,0.6363636363636364,0.6363636363636364
0.7878787878787878,0.7878787878787878,0.7878787878787878
0.42424242424242425,0.42424242424242425,0.4242424242424243
0.5757575757575758,0.5757575757575758,0.5757575757575758
0.42424242424242425,0.42424242424242425,0.4242424242424243
0.6363636363636364,0.6363636363636364,0.6363636363636364
0.42424242424242425,0.42424242424242425,0.4242424242424243
0.5454545454545454,0.5454545454545454,0.5454545454545454
0.5151515151515151,0.5151515151515151,0.5151515151515151
0.42424242424242425,0.42424242424242425,0.4242424242424243
