Precision,Recall,F-measure
0.9895833333333334,0.9895833333333334,0.9895833333333334
0.9895833333333334,0.9895833333333334,0.9895833333333334
1.0,1.0,1.0
0.9895833333333334,0.9895833333333334,0.9895833333333334
1.0,1.0,1.0
0.9166666666666666,0.9166666666666666,0.9166666666666666
1.0,1.0,1.0
1.0,1.0,1.0
1.0,1.0,1.0
1.0,1.0,1.0
1.0,1.0,1.0
1.0,1.0,1.0
0.9895833333333334,0.9895833333333334,0.9895833333333334
1.0,1.0,1.0
1.0,1.0,1.0
0.9895833333333334,0.9895833333333334,0.9895833333333334
1.0,1.0,1.0
0.9895833333333334,0.9895833333333334,0.9895833333333334
1.0,1.0,1.0
