Precision,Recall,F-measure
0.3854166666666667,0.3854166666666667,0.38541666666666663
0.4270833333333333,0.4270833333333333,0.4270833333333333
0.4895833333333333,0.4895833333333333,0.4895833333333333
0.4895833333333333,0.4895833333333333,0.4895833333333333
0.59375,0.59375,0.59375
0.4791666666666667,0.4791666666666667,0.4791666666666667
