Precision,Recall,F-measure
0.35051546391752575,0.35051546391752575,0.35051546391752575
0.4536082474226804,0.4536082474226804,0.4536082474226804
0.5154639175257731,0.5154639175257731,0.5154639175257731
0.36082474226804123,0.36082474226804123,0.3608247422680413
0.4742268041237113,0.4742268041237113,0.4742268041237113
0.31958762886597936,0.31958762886597936,0.31958762886597936
0.4845360824742268,0.4845360824742268,0.4845360824742268
