Precision,Recall,F-measure
0.36082474226804123,0.36082474226804123,0.3608247422680413
0.2268041237113402,0.2268041237113402,0.2268041237113402
0.21649484536082475,0.21649484536082475,0.21649484536082472
0.2268041237113402,0.2268041237113402,0.2268041237113402
0.41237113402061853,0.41237113402061853,0.41237113402061853
0.28865979381443296,0.28865979381443296,0.28865979381443296
0.030927835051546393,0.030927835051546393,0.030927835051546393
0.3402061855670103,0.3402061855670103,0.3402061855670103
0.422680412371134,0.422680412371134,0.422680412371134
