Precision,Recall,F-measure
0.23711340206185566,0.23711340206185566,0.23711340206185566
0.10309278350515463,0.10309278350515463,0.10309278350515463
0.4020618556701031,0.4020618556701031,0.4020618556701031
0.020618556701030927,0.020618556701030927,0.020618556701030927
0.13402061855670103,0.13402061855670103,0.13402061855670103
0.35051546391752575,0.35051546391752575,0.35051546391752575
0.44329896907216493,0.44329896907216493,0.44329896907216493
0.12371134020618557,0.12371134020618557,0.12371134020618557
0.020618556701030927,0.020618556701030927,0.020618556701030927
0.1134020618556701,0.1134020618556701,0.1134020618556701
0.4742268041237113,0.4742268041237113,0.4742268041237113
0.4020618556701031,0.4020618556701031,0.4020618556701031
