Precision,Recall,F-measure
0.4479166666666667,0.4479166666666667,0.4479166666666667
0.5729166666666666,0.5729166666666666,0.5729166666666666
0.5625,0.5625,0.5625
0.5208333333333334,0.5208333333333334,0.5208333333333334
0.53125,0.53125,0.53125
0.4479166666666667,0.4479166666666667,0.4479166666666667
0.5833333333333334,0.5833333333333334,0.5833333333333334
0.5416666666666666,0.5416666666666666,0.5416666666666666
0.5104166666666666,0.5104166666666666,0.5104166666666666
0.59375,0.59375,0.59375
0.5208333333333334,0.5208333333333334,0.5208333333333334
0.5520833333333334,0.5520833333333334,0.5520833333333334
