Precision,Recall,F-measure
0.8247422680412371,0.8247422680412371,0.8247422680412371
0.7319587628865979,0.7319587628865979,0.7319587628865979
0.8041237113402062,0.8041237113402062,0.8041237113402062
0.7422680412371134,0.7422680412371134,0.7422680412371134
0.7835051546391752,0.7835051546391752,0.7835051546391752
0.3917525773195876,0.3917525773195876,0.3917525773195876
0.7835051546391752,0.7835051546391752,0.7835051546391752
