Precision,Recall,F-measure
0.8969072164948454,0.8969072164948454,0.8969072164948453
0.8762886597938144,0.8762886597938144,0.8762886597938144
0.8041237113402062,0.8041237113402062,0.8041237113402062
0.8041237113402062,0.8041237113402062,0.8041237113402062
0.8247422680412371,0.8247422680412371,0.8247422680412371
0.8144329896907216,0.8144329896907216,0.8144329896907216
0.8247422680412371,0.8247422680412371,0.8247422680412371
0.8041237113402062,0.8041237113402062,0.8041237113402062
0.8144329896907216,0.8144329896907216,0.8144329896907216
0.845360824742268,0.845360824742268,0.845360824742268
