Precision,Recall,F-measure
0.7628865979381443,0.7628865979381443,0.7628865979381443
0.7835051546391752,0.7835051546391752,0.7835051546391752
0.865979381443299,0.865979381443299,0.8659793814432989
0.7938144329896907,0.7938144329896907,0.7938144329896907
0.7628865979381443,0.7628865979381443,0.7628865979381443
0.8144329896907216,0.8144329896907216,0.8144329896907216
0.7628865979381443,0.7628865979381443,0.7628865979381443
0.845360824742268,0.845360824742268,0.845360824742268
0.7628865979381443,0.7628865979381443,0.7628865979381443
0.8247422680412371,0.8247422680412371,0.8247422680412371
0.7628865979381443,0.7628865979381443,0.7628865979381443
