Precision,Recall,F-measure
1.0,1.0,1.0
1.0,1.0,1.0
1.0,1.0,1.0
1.0,1.0,1.0
0.3711340206185567,0.3711340206185567,0.3711340206185567
1.0,1.0,1.0
1.0,1.0,1.0
1.0,1.0,1.0
1.0,1.0,1.0
1.0,1.0,1.0
1.0,1.0,1.0
0.3711340206185567,0.3711340206185567,0.3711340206185567
1.0,1.0,1.0
1.0,1.0,1.0
1.0,1.0,1.0
0.9381443298969072,0.9381443298969072,0.9381443298969072
1.0,1.0,1.0
1.0,1.0,1.0
0.9381443298969072,0.9381443298969072,0.9381443298969072
1.0,1.0,1.0
