Precision,Recall,F-measure
0.7422680412371134,0.7422680412371134,0.7422680412371134
0.7216494845360825,0.7216494845360825,0.7216494845360826
0.8556701030927835,0.8556701030927835,0.8556701030927835
0.865979381443299,0.865979381443299,0.8659793814432989
0.711340206185567,0.711340206185567,0.711340206185567
0.7010309278350515,0.7010309278350515,0.7010309278350515
0.7319587628865979,0.7319587628865979,0.7319587628865979
0.7010309278350515,0.7010309278350515,0.7010309278350515
0.7835051546391752,0.7835051546391752,0.7835051546391752
0.8556701030927835,0.8556701030927835,0.8556701030927835
