Precision,Recall,F-measure
0.75,0.75,0.75
0.625,0.625,0.625
0.625,0.625,0.625
0.71875,0.71875,0.71875
0.625,0.625,0.625
0.625,0.625,0.625
0.78125,0.78125,0.78125
0.8125,0.8125,0.8125
0.625,0.625,0.625
