Precision,Recall,F-measure
0.75,0.75,0.75
0.59375,0.59375,0.59375
0.5625,0.5625,0.5625
0.8125,0.8125,0.8125
0.625,0.625,0.625
0.625,0.625,0.625
0.28125,0.28125,0.28125
0.875,0.875,0.875
0.28125,0.28125,0.28125
0.59375,0.59375,0.59375
0.59375,0.59375,0.59375
0.625,0.625,0.625
0.4375,0.4375,0.4375
0.8125,0.8125,0.8125
0.28125,0.28125,0.28125
0.28125,0.28125,0.28125
0.8125,0.8125,0.8125
0.28125,0.28125,0.28125
0.71875,0.71875,0.71875
0.28125,0.28125,0.28125
