Precision,Recall,F-measure
0.696969696969697,0.696969696969697,0.696969696969697
0.6666666666666666,0.6666666666666666,0.6666666666666666
0.696969696969697,0.696969696969697,0.696969696969697
0.696969696969697,0.696969696969697,0.696969696969697
0.6666666666666666,0.6666666666666666,0.6666666666666666
0.7272727272727273,0.7272727272727273,0.7272727272727273
0.6666666666666666,0.6666666666666666,0.6666666666666666
0.7575757575757576,0.7575757575757576,0.7575757575757576
0.6666666666666666,0.6666666666666666,0.6666666666666666
0.7272727272727273,0.7272727272727273,0.7272727272727273
0.6666666666666666,0.6666666666666666,0.6666666666666666
