Precision,Recall,F-measure
0.4375,0.4375,0.4375
0.3541666666666667,0.3541666666666667,0.3541666666666667
0.4166666666666667,0.4166666666666667,0.4166666666666667
0.020833333333333332,0.020833333333333332,0.020833333333333332
0.3645833333333333,0.3645833333333333,0.36458333333333326
0.375,0.375,0.375
0.3541666666666667,0.3541666666666667,0.3541666666666667
0.5729166666666666,0.5729166666666666,0.5729166666666666
0.020833333333333332,0.020833333333333332,0.020833333333333332
0.3125,0.3125,0.3125
