Precision,Recall,F-measure
0.979381443298969,0.979381443298969,0.979381443298969
0.9278350515463918,0.9278350515463918,0.9278350515463918
0.8865979381443299,0.8865979381443299,0.8865979381443299
0.9484536082474226,0.9484536082474226,0.9484536082474226
0.9381443298969072,0.9381443298969072,0.9381443298969072
0.9072164948453608,0.9072164948453608,0.9072164948453608
0.9175257731958762,0.9175257731958762,0.9175257731958762
0.35051546391752575,0.35051546391752575,0.35051546391752575
0.8969072164948454,0.8969072164948454,0.8969072164948453
