Precision,Recall,F-measure
0.5757575757575758,0.5757575757575758,0.5757575757575758
0.5757575757575758,0.5757575757575758,0.5757575757575758
0.5757575757575758,0.5757575757575758,0.5757575757575758
0.5454545454545454,0.5454545454545454,0.5454545454545454
0.2727272727272727,0.2727272727272727,0.2727272727272727
0.2727272727272727,0.2727272727272727,0.2727272727272727
0.5454545454545454,0.5454545454545454,0.5454545454545454
0.5454545454545454,0.5454545454545454,0.5454545454545454
0.42424242424242425,0.42424242424242425,0.4242424242424243
0.2727272727272727,0.2727272727272727,0.2727272727272727
0.3333333333333333,0.3333333333333333,0.3333333333333333
0.3333333333333333,0.3333333333333333,0.3333333333333333
0.6060606060606061,0.6060606060606061,0.6060606060606061
0.5454545454545454,0.5454545454545454,0.5454545454545454
0.42424242424242425,0.42424242424242425,0.4242424242424243
0.48484848484848486,0.48484848484848486,0.48484848484848486
0.2727272727272727,0.2727272727272727,0.2727272727272727
0.2727272727272727,0.2727272727272727,0.2727272727272727
0.2727272727272727,0.2727272727272727,0.2727272727272727
0.2727272727272727,0.2727272727272727,0.2727272727272727
