Precision,Recall,F-measure,Time,similarity.structure.ConceptNameSimilarity@7710ebbf,similarity.structure.DirectIndividualSimilarity@42ac2f18,similarity.structure.CommentTokenSimilarity@138e6c78,class similarity.FunctionContainer@FuncoesHierarquia,similarity.structure.DirectSuperClassSimilarity@55e5f124,similarity.structure.DirectSubClassSimilarity@2558a534,class similarity.FunctionContainer@FuncoesPropriedades,similarity.structure.DirectPropertybyRangeDomainSimilarity@62f8a68,similarity.structure.DirectPropertybyNameSimilarity@66a2cb79
1.0,1.0,1.0,11.67s,0.015,0.325,0.66,0.015,0.225,0.375,0.005,0.04,0.885
0.875,0.875,0.875,2.225s,0.0,0.0,1.0,0.0,0.025,0.945,0.0,0.225,0.02
1.0,1.0,1.0,6.152s,0.05,0.455,0.495,0.01,0.36,0.525,0.01,0.115,0.87
1.0,1.0,1.0,5.67s,0.01,0.0,0.99,0.0,0.5,0.275,0.0,0.115,0.13
1.0,1.0,1.0,6.74s,0.955,0.03,0.005,0.005,0.085,0.545,0.01,0.01,0.805
1.0,1.0,1.0,3.742s,0.015,0.0,0.98,0.005,0.795,0.47,0.0,0.465,0.38
1.0,1.0,1.0,3.6s,0.015,0.0,0.985,0.0,0.08,0.845,0.0,0.495,0.32
1.0,1.0,1.0,2.534s,0.065,0.0,0.165,0.02,0.12,0.585,0.805,0.7,0.24
0.875,0.875,0.875,4.965s,0.0,0.0,1.0,0.0,0.07,0.83,0.0,0.71,0.28
1.0,1.0,1.0,6.314s,0.02,0.41,0.575,0.01,0.61,0.185,0.005,0.43,0.54
1.0,1.0,1.0,2.85s,0.68,0.0,0.275,0.045,0.515,0.41,0.02,0.33,0.225
1.0,1.0,1.0,4.576s,0.98,0.0,0.0,0.015,0.285,0.68,0.01,0.1,0.595
1.0,1.0,1.0,6.248s,0.795,0.005,0.015,0.005,0.335,0.185,0.185,0.035,0.955
1.0,1.0,1.0,6.31s,0.0,0.01,0.915,0.01,0.71,0.17,0.07,0.155,0.83
1.0,1.0,1.0,3.557s,0.985,0.0,0.005,0.015,0.04,0.64,0.0,0.96,0.025
1.0,1.0,1.0,6.168s,0.04,0.225,0.725,0.005,0.855,0.02,0.02,0.235,0.55
1.0,1.0,1.0,3.5s,0.02,0.0,0.95,0.045,0.205,0.53,0.0,0.35,0.355
1.0,1.0,1.0,12.621s,0.175,0.0,0.82,0.005,0.54,0.03,0.005,0.555,0.055
1.0,1.0,1.0,7.594s,0.07,0.795,0.0,0.125,0.045,0.87,0.055,0.915,0.05
1.0,1.0,1.0,31.184s,0.835,0.135,0.01,0.035,0.335,0.45,0.005,0.22,0.105
