Precision,Recall,F-measure
0.06060606060606061,0.06060606060606061,0.06060606060606061
0.06060606060606061,0.06060606060606061,0.06060606060606061
0.12121212121212122,0.12121212121212122,0.12121212121212122
0.09090909090909091,0.09090909090909091,0.09090909090909091
0.06060606060606061,0.06060606060606061,0.06060606060606061
0.09090909090909091,0.09090909090909091,0.09090909090909091
0.06060606060606061,0.06060606060606061,0.06060606060606061
0.12121212121212122,0.12121212121212122,0.12121212121212122
