Precision,Recall,F-measure,Time,similarity.structure.ConceptNameSimilarity@191cf59b,similarity.structure.DirectIndividualSimilarity@42dc3f4,similarity.structure.CommentTokenSimilarity@11afef6e,class similarity.FunctionContainer@FuncoesHierarquia,similarity.structure.DirectSuperClassSimilarity@7c319e32,similarity.structure.DirectSubClassSimilarity@2ff1c02,class similarity.FunctionContainer@FuncoesPropriedades,similarity.structure.DirectPropertybyRangeDomainSimilarity@68a75dca,similarity.structure.DirectPropertybyNameSimilarity@61d0b2f
0.3402061855670103,0.3402061855670103,0.3402061855670103,21.007s,0.0,1.0,0.03,0.0,0.07,0.885,0.0,0.515,0.12
0.4845360824742268,0.4845360824742268,0.4845360824742268,7.749s,0.01,0.89,0.0,0.165,0.185,0.53,0.01,0.03,0.595
0.4639175257731959,0.4639175257731959,0.4639175257731959,7.157s,0.02,0.99,0.005,0.01,0.27,0.37,0.0,0.16,0.255
0.6804123711340206,0.6804123711340206,0.6804123711340206,16.375s,0.05,0.935,0.005,0.03,0.02,0.87,0.035,0.865,0.0
0.7010309278350515,0.7010309278350515,0.7010309278350515,13.065s,0.0,0.875,0.135,0.115,0.065,0.9,0.02,0.955,0.03
0.6597938144329897,0.6597938144329897,0.6597938144329897,8.518s,0.005,0.99,0.0,0.01,0.575,0.235,0.005,0.675,0.06
0.6391752577319587,0.6391752577319587,0.6391752577319587,8.688s,0.0,0.99,0.07,0.01,0.97,0.0,0.005,0.955,0.035
0.6907216494845361,0.6907216494845361,0.6907216494845361,13.753s,0.01,0.99,0.045,0.0,0.685,0.1,0.01,0.82,0.12
0.7010309278350515,0.7010309278350515,0.7010309278350515,8.147s,0.09,0.9,0.015,0.005,0.16,0.705,0.15,0.36,0.555
0.44329896907216493,0.44329896907216493,0.44329896907216493,8.867s,0.005,0.985,0.0,0.015,0.105,0.86,0.0,0.22,0.33
0.6907216494845361,0.6907216494845361,0.6907216494845361,11.2s,0.025,0.98,0.095,0.0,0.2,0.285,0.02,0.76,0.105
0.3402061855670103,0.3402061855670103,0.3402061855670103,7.023s,0.0,1.0,0.0,0.0,0.075,0.885,0.0,0.495,0.065
0.5979381443298969,0.5979381443298969,0.5979381443298969,7.978s,0.02,0.98,0.0,0.02,0.89,0.0,0.01,0.3,0.66
0.41237113402061853,0.41237113402061853,0.41237113402061853,8.813s,0.01,0.69,0.005,0.32,0.02,0.945,0.005,0.0,0.905
0.4536082474226804,0.4536082474226804,0.4536082474226804,9.554s,0.0,0.985,0.005,0.025,0.475,0.32,0.0,0.515,0.045
0.3402061855670103,0.3402061855670103,0.3402061855670103,5.638s,0.0,1.0,0.005,0.0,0.555,0.055,0.0,0.615,0.14
0.4536082474226804,0.4536082474226804,0.4536082474226804,31.225s,0.0,0.84,0.0,0.355,0.395,0.215,0.005,0.0,0.61
0.4948453608247423,0.4948453608247423,0.4948453608247423,21.03s,0.0,0.995,0.01,0.0,0.02,0.97,0.015,0.05,0.89
0.44329896907216493,0.44329896907216493,0.44329896907216493,48.501s,0.11,0.36,0.0,0.725,0.34,0.645,0.005,0.01,0.68
0.3402061855670103,0.3402061855670103,0.3402061855670103,33.972s,0.0,1.0,0.0,0.0,0.11,0.035,0.0,0.03,0.81
