Precision,Recall,F-measure,Time,similarity.structure.ConceptNameSimilarity@58b26a7f,similarity.structure.DirectIndividualSimilarity@730f4949,similarity.structure.CommentTokenSimilarity@71369693,similarity.structure.DirectSuperClassSimilarity@5451643,similarity.structure.DirectSubClassSimilarity@4eef7506,similarity.structure.DirectPropertybyRangeDomainSimilarity@47a32893,similarity.structure.DirectPropertybyNameSimilarity@2e4bcfa
0.6804123711340206,0.6804123711340206,0.6804123711340206,21.513s,0.05264249,0.17616211,0.17726368,0.06952623,0.11125004,0.20856366,0.2045918
0.6288659793814433,0.6288659793814433,0.6288659793814433,7.803s,0.13216314,0.13933727,0.16717586,0.28365076,0.09396583,0.078938566,0.10476857
0.7216494845360825,0.7216494845360825,0.7216494845360826,7.044s,0.14804202,0.19855933,0.2226461,0.039532494,0.08055798,0.1777008,0.13296127
0.6804123711340206,0.6804123711340206,0.6804123711340206,7.639s,0.09228917,0.10824633,0.11742686,0.06134756,0.41696718,0.097516164,0.10620674
0.5670103092783505,0.5670103092783505,0.5670103092783505,7.807s,0.12212055,0.09216213,0.15093574,0.15071817,0.15624873,0.07420401,0.25361067
0.3917525773195876,0.3917525773195876,0.3917525773195876,7.114s,0.0,0.985,0.0,0.0,0.015,0.0,0.0
0.6391752577319587,0.6391752577319587,0.6391752577319587,7.37s,0.004830918,0.9516908,0.028985508,0.0,0.004830918,0.009661836,0.0
0.3402061855670103,0.3402061855670103,0.3402061855670103,4.442s,0.0,0.9852217,0.014778325,0.0,0.0,0.0,0.0
0.6185567010309279,0.6185567010309279,0.6185567010309279,6.918s,0.004950495,0.5247525,0.004950495,0.0,0.45544556,0.00990099,0.0
0.5773195876288659,0.5773195876288659,0.5773195876288659,7.586s,0.107487865,0.10186445,0.20149869,0.18498328,0.12632434,0.08267909,0.19516228
0.3917525773195876,0.3917525773195876,0.3917525773195876,7.008s,0.0,0.995,0.0,0.0,0.005,0.0,0.0
0.5360824742268041,0.5360824742268041,0.5360824742268041,7.591s,0.060320966,0.13590078,0.24176387,0.065068096,0.28628665,0.026998494,0.18366112
0.36082474226804123,0.36082474226804123,0.3608247422680413,5.279s,0.0,0.00990099,0.00990099,0.0,0.980198,0.0,0.0
0.6804123711340206,0.6804123711340206,0.6804123711340206,7.547s,0.0,0.053398058,0.0,0.04368932,0.80582523,0.097087376,0.0
0.030927835051546393,0.030927835051546393,0.030927835051546393,3.36s,0.0,0.0,0.0,0.0,1.0,0.0,0.0
0.3402061855670103,0.3402061855670103,0.3402061855670103,5.182s,0.0,0.9852217,0.014778325,0.0,0.0,0.0,0.0
0.7422680412371134,0.7422680412371134,0.7422680412371134,7.517s,0.0138544645,0.2667682,0.19934618,0.13012305,0.048853513,0.16817406,0.17288056
0.3917525773195876,0.3917525773195876,0.3917525773195876,6.244s,0.0,0.05882353,0.019607844,0.0,0.92156863,0.0,0.0
0.3917525773195876,0.3917525773195876,0.3917525773195876,4.502s,0.0,0.24019608,0.019607844,0.0,0.74019605,0.0,0.0
0.3402061855670103,0.3402061855670103,0.3402061855670103,8.025s,0.0,0.99502486,0.0049751243,0.0,0.0,0.0,0.0
