Precision,Recall,F-measure
0.2916666666666667,0.2916666666666667,0.2916666666666667
0.3229166666666667,0.3229166666666667,0.3229166666666667
0.28125,0.28125,0.28125
0.3333333333333333,0.3333333333333333,0.3333333333333333
0.375,0.375,0.375
0.2916666666666667,0.2916666666666667,0.2916666666666667
0.3125,0.3125,0.3125
0.375,0.375,0.375
0.3645833333333333,0.3645833333333333,0.36458333333333326
0.3333333333333333,0.3333333333333333,0.3333333333333333
