Precision,Recall,F-measure,Time,similarity.structure.ConceptNameSimilarity@1678a86a,similarity.structure.DirectIndividualSimilarity@20992510,similarity.structure.CommentTokenSimilarity@31398449,class similarity.FunctionContainer@FuncoesHierarquia,similarity.structure.DirectSuperClassSimilarity@365ef3f5,similarity.structure.DirectSubClassSimilarity@65b626ac,class similarity.FunctionContainer@FuncoesPropriedades,similarity.structure.DirectPropertybyRangeDomainSimilarity@cee3eaf,similarity.structure.DirectPropertybyNameSimilarity@7188f8b7
1.0,1.0,1.0,8.476s,0.745,0.0,0.255,0.0,0.045,0.275,0.0,0.37,0.395
1.0,1.0,1.0,5.736s,0.99,0.0,0.005,0.0,0.055,0.725,0.005,0.81,0.19
1.0,1.0,1.0,6.366s,0.025,0.07,0.86,0.01,0.365,0.305,0.05,0.05,0.77
1.0,1.0,1.0,9.119s,0.755,0.01,0.2,0.005,0.33,0.115,0.09,0.205,0.165
1.0,1.0,1.0,5.632s,0.995,0.0,0.005,0.0,0.445,0.195,0.0,0.0,0.985
1.0,1.0,1.0,6.581s,0.03,0.995,0.0,0.005,0.495,0.16,0.005,0.725,0.06
1.0,1.0,1.0,5.088s,0.015,0.0,0.965,0.02,0.4,0.4,0.005,0.995,0.005
1.0,1.0,1.0,9.621s,0.06,0.03,0.235,0.015,0.62,0.095,0.68,0.145,0.835
1.0,1.0,1.0,6.615s,0.52,0.0,0.465,0.0,0.0,0.915,0.025,0.14,0.46
1.0,1.0,1.0,7.037s,0.015,0.075,0.855,0.065,0.375,0.555,0.0,0.015,0.945
1.0,1.0,1.0,3.066s,0.98,0.0,0.015,0.0,0.095,0.545,0.005,0.405,0.595
1.0,1.0,1.0,5.762s,0.57,0.0,0.425,0.01,0.2,0.325,0.0,0.125,0.48
1.0,1.0,1.0,6.633s,0.905,0.035,0.03,0.025,0.145,0.78,0.01,0.08,0.765
1.0,1.0,1.0,6.839s,0.0,0.015,0.975,0.01,0.055,0.605,0.005,0.21,0.58
1.0,1.0,1.0,6.456s,0.035,0.985,0.005,0.0,0.99,0.0,0.005,1.28,0.035
1.0,1.0,1.0,3.708s,0.955,0.0,0.02,0.01,0.6,0.175,0.02,0.5,0.4
1.0,1.0,1.0,6.544s,0.02,0.35,0.14,0.005,0.21,0.07,0.505,0.09,0.9
1.0,1.0,1.0,38.744s,0.88,0.0,0.12,0.0,0.005,0.985,0.0,0.03,0.845
1.0,1.0,1.0,5.063s,0.965,0.0,0.035,0.0,0.91,0.025,0.0,0.615,0.19
1.0,1.0,1.0,9.504s,0.705,0.0,0.295,0.0,0.605,0.03,0.0,0.025,0.955
