Precision,Recall,F-measure
0.8181818181818182,0.8181818181818182,0.8181818181818182
0.8484848484848485,0.8484848484848485,0.8484848484848486
0.8484848484848485,0.8484848484848485,0.8484848484848486
0.8484848484848485,0.8484848484848485,0.8484848484848486
0.7878787878787878,0.7878787878787878,0.7878787878787878
0.696969696969697,0.696969696969697,0.696969696969697
